<?xml version="1.0" encoding="utf-8"?>
<COLLADA xmlns="http://www.collada.org/2005/11/COLLADASchema" version="1.4.0">
  <asset>
    <contributor>
      <author></author>
      <authoring_tool>FBX COLLADA exporter</authoring_tool>
      <comments></comments>
    </contributor>
    <created>2010-07-23T14:26:44Z</created>
    <modified>2010-07-23T14:26:44Z</modified>
    <revision></revision>
    <title></title>
    <subject></subject>
    <keywords></keywords>
    <unit meter="1.000000"/>
    <up_axis>Y_UP</up_axis>
  </asset>
  <library_images>
    <image id="Ground_video_-image" name="Ground_video_">
      <init_from>file://K:\Work\GaeaApps\Infinity5_20100722\Infinity5\data\videoavi\vi deoview_c.tga</init_from>
    </image>
    <image id="Map__42-image" name="Map__42">
      <init_from>file://K:\Work\GaeaApps\Infinity5_20100722\Infinity5\data\videoavi\vi deoview_e.tga</init_from>
    </image>
    <image id="Map__52-image" name="Map__52">
      <init_from>file://</init_from>
    </image>
    <image id="Map__51-image" name="Map__51">
      <init_from>file://E:\wind_work\videoavi\p07.avi</init_from>
    </image>
  </library_images>
  <library_materials>
    <material id="Ground_video_" name="Ground_video_">
      <instance_effect url="#Ground_video_-fx"/>
    </material>
    <material id="videoview_av2" name="videoview_av2">
      <instance_effect url="#videoview_av2-fx"/>
    </material>
  </library_materials>
  <library_effects>
    <effect id="Ground_video_-fx" name="Ground_video_">
      <profile_COMMON>
        <technique sid="standard">
          <phong>
            <emission>
              <texture texture="Map__42-image" texcoord="CHANNEL0">
                <extra>
                  <technique profile="MAYA">
                    <wrapU sid="wrapU0">TRUE</wrapU>
                    <wrapV sid="wrapV0">TRUE</wrapV>
                    <blend_mode>ADD</blend_mode>
                  </technique>
                </extra>
              </texture>
            </emission>
            <ambient>
              <color sid="ambient">0.588235  0.588235 0.588235 1.000000</color>
            </ambient>
            <diffuse>
              <texture texture="Ground_video_-image" texcoord="CHANNEL0">
                <extra>
                  <technique profile="MAYA">
                    <wrapU sid="wrapU0">TRUE</wrapU>
                    <wrapV sid="wrapV0">TRUE</wrapV>
                    <blend_mode>ADD</blend_mode>
                  </technique>
                </extra>
              </texture>
            </diffuse>
            <specular>
              <color sid="specular">0.000000  0.000000 0.000000 1.000000</color>
            </specular>
            <shininess>
              <float sid="shininess">2.000000</float>
            </shininess>
            <reflective>
              <color sid="reflective">0.000000  0.000000 0.000000 1.000000</color>
            </reflective>
            <reflectivity>
              <float sid="reflectivity">1.000000</float>
            </reflectivity>
            <transparent>
              <color sid="transparent">1.000000  1.000000 1.000000 1.000000</color>
            </transparent>
            <transparency>
              <float sid="transparency">0.000000</float>
            </transparency>
          </phong>
        </technique>
      </profile_COMMON>
    </effect>
    <effect id="videoview_av2-fx" name="videoview_av2">
      <profile_COMMON>
        <technique sid="standard">
          <phong>
            <emission>
              <texture texture="Map__51-image" texcoord="CHANNEL0">
                <extra>
                  <technique profile="MAYA">
                    <wrapU sid="wrapU0">TRUE</wrapU>
                    <wrapV sid="wrapV0">TRUE</wrapV>
                    <blend_mode>ADD</blend_mode>
                  </technique>
                </extra>
              </texture>
            </emission>
            <ambient>
              <color sid="ambient">1.000000  0.588235 0.607843 1.000000</color>
            </ambient>
            <diffuse>
              <texture texture="Map__52-image" texcoord="CHANNEL0">
                <extra>
                  <technique profile="MAYA">
                    <wrapU sid="wrapU0">TRUE</wrapU>
                    <wrapV sid="wrapV0">TRUE</wrapV>
                    <blend_mode>ADD</blend_mode>
                  </technique>
                </extra>
              </texture>
            </diffuse>
            <specular>
              <color sid="specular">0.000000  0.000000 0.000000 1.000000</color>
            </specular>
            <shininess>
              <float sid="shininess">2.000000</float>
            </shininess>
            <reflective>
              <color sid="reflective">0.000000  0.000000 0.000000 1.000000</color>
            </reflective>
            <reflectivity>
              <float sid="reflectivity">1.000000</float>
            </reflectivity>
            <transparent>
              <color sid="transparent">1.000000  1.000000 1.000000 1.000000</color>
            </transparent>
            <transparency>
              <float sid="transparency">0.400000</float>
            </transparency>
          </phong>
        </technique>
      </profile_COMMON>
    </effect>
  </library_effects>
  <library_geometries>
    <geometry id="video_view_02-lib" name="video_view_02Mesh">
      <mesh>
        <source id="video_view_02-lib-Position">
          <float_array id="video_view_02-lib-Position-array" count="90">
5.217486 1.665647 -0.574521
0.000000 1.675090 -0.574521
-1.184467 1.184467 -0.574521
-1.675090 -0.000000 -0.574521
-1.184467 -1.184467 -0.574521
0.000000 -1.675090 -0.574521
5.217486 -1.665647 -0.574521
5.217487 1.665647 10.546129
-0.000000 1.675090 10.546129
-1.184467 1.184467 10.546129
-1.675090 -0.000000 10.546129
-1.184467 -1.184468 10.546129
0.000000 -1.675090 10.546129
5.217487 -1.665647 10.546129
-11.614964 -0.765764 5.159423
-1.175406 -0.765764 0.244436
-11.614964 0.882462 5.159423
-1.175406 0.882462 0.244435
-11.614964 -0.765763 9.549794
-1.175406 -0.765763 9.549799
-11.614964 0.882463 9.549794
-1.175406 0.882462 9.549799
-10.837282 0.882462 5.159425
-10.837282 -0.765764 5.159425
-10.837280 -0.765763 9.549797
-10.837280 0.882462 9.549797
-9.300502 -0.765764 0.244436
-9.300503 0.882462 9.549799
-9.300502 0.882462 0.244435
-9.300502 -0.765763 9.549799
</float_array>
          <technique_common>
            <accessor source="#video_view_02-lib-Position-array" count="30" stride="3">
              <param name="X" type="float"/>
              <param name="Y" type="float"/>
              <param name="Z" type="float"/>
            </accessor>
          </technique_common>
        </source>
        <source id="video_view_02-lib-Normal0">
          <float_array id="video_view_02-lib-Normal0-array" count="432">
0.001810 0.999998 0.000000
-0.194203 0.980961 0.000000
-0.194203 0.980961 0.000000
-0.194203 0.980961 0.000000
0.001810 0.999998 0.000000
0.001810 0.999998 0.000000
-0.194203 0.980961 0.000000
-0.707107 0.707107 0.000000
-0.707107 0.707107 0.000000
-0.707107 0.707107 0.000000
-0.194203 0.980961 0.000000
-0.194203 0.980961 0.000000
-0.707107 0.707107 0.000000
-1.000000 -0.000000 0.000000
-1.000000 -0.000000 0.000000
-1.000000 -0.000000 0.000000
-0.707107 0.707107 0.000000
-0.707107 0.707107 0.000000
-1.000000 -0.000000 0.000000
-0.707107 -0.707107 0.000000
-0.707107 -0.707107 0.000000
-0.707107 -0.707107 0.000000
-1.000000 -0.000000 0.000000
-1.000000 -0.000000 0.000000
-0.707107 -0.707107 0.000000
-0.194203 -0.980961 -0.000000
-0.194203 -0.980961 -0.000000
-0.194203 -0.980961 -0.000000
-0.707107 -0.707107 0.000000
-0.707107 -0.707107 0.000000
-0.194203 -0.980961 -0.000000
0.001810 -0.999998 -0.000000
0.001810 -0.999998 -0.000000
0.001810 -0.999998 -0.000000
-0.194203 -0.980961 -0.000000
-0.194203 -0.980961 -0.000000
0.000000 0.000000 -1.000000
0.000000 0.000000 -1.000000
0.000000 0.000000 -1.000000
0.000000 0.000000 -1.000000
0.000000 0.000000 -1.000000
0.000000 0.000000 -1.000000
0.000000 0.000000 -1.000000
0.000000 0.000000 -1.000000
0.000000 0.000000 -1.000000
0.000000 0.000000 -1.000000
0.000000 0.000000 -1.000000
0.000000 0.000000 -1.000000
0.000000 0.000000 -1.000000
0.000000 0.000000 -1.000000
0.000000 0.000000 -1.000000
0.000000 0.000000 1.000000
0.000000 0.000000 1.000000
0.000000 0.000000 1.000000
0.000000 0.000000 1.000000
0.000000 0.000000 1.000000
0.000000 0.000000 1.000000
0.000000 0.000000 1.000000
0.000000 0.000000 1.000000
0.000000 0.000000 1.000000
0.000000 0.000000 1.000000
0.000000 0.000000 1.000000
0.000000 0.000000 1.000000
0.000000 0.000000 1.000000
0.000000 0.000000 1.000000
0.000000 0.000000 1.000000
0.000002 0.000000 -1.000000
0.000002 0.000000 -1.000000
-0.592272 -0.000000 -0.805738
-0.592272 -0.000000 -0.805738
-0.592272 -0.000000 -0.805738
0.000002 0.000000 -1.000000
-0.000004 0.000000 1.000000
-0.000002 -0.000000 1.000000
-0.000002 -0.000000 1.000000
-0.000002 -0.000000 1.000000
-0.000004 0.000000 1.000000
-0.000004 0.000000 1.000000
-0.000000 -1.000000 0.000000
0.000000 -1.000000 0.000000
0.000000 -1.000000 0.000000
0.000000 -1.000000 0.000000
-0.000000 -1.000000 0.000000
-0.000000 -1.000000 0.000000
0.000000 1.000000 -0.000000
-0.000000 1.000000 -0.000000
-0.000000 1.000000 -0.000000
-0.000000 1.000000 -0.000000
0.000000 1.000000 -0.000000
0.000000 1.000000 -0.000000
-1.000000 0.000000 0.000000
-1.000000 0.000000 0.000000
-1.000000 0.000000 0.000000
-1.000000 0.000000 0.000000
-1.000000 0.000000 0.000000
-1.000000 0.000000 0.000000
-0.592272 -0.000000 -0.805738
-0.592273 -0.000000 -0.805737
-0.592273 -0.000000 -0.805737
-0.592273 -0.000000 -0.805737
-0.592272 -0.000000 -0.805738
-0.592272 -0.000000 -0.805738
-0.000002 -0.000000 1.000000
-0.000001 -0.000000 1.000000
-0.000001 -0.000000 1.000000
-0.000001 -0.000000 1.000000
-0.000002 -0.000000 1.000000
-0.000002 -0.000000 1.000000
0.000000 -1.000000 0.000000
0.000000 -1.000000 0.000000
0.000000 -1.000000 0.000000
0.000000 -1.000000 0.000000
0.000000 -1.000000 0.000000
0.000000 -1.000000 0.000000
-0.000000 1.000000 -0.000000
0.000000 1.000000 -0.000000
0.000000 1.000000 -0.000000
0.000000 1.000000 -0.000000
-0.000000 1.000000 -0.000000
-0.000000 1.000000 -0.000000
-0.000000 1.000000 -0.000000
-0.000000 1.000000 -0.000000
-0.000000 1.000000 -0.000000
-0.000000 1.000000 -0.000000
-0.000000 1.000000 -0.000000
-0.000000 1.000000 -0.000000
-0.592273 -0.000000 -0.805737
-0.000000 -0.000000 -1.000000
-0.000000 -0.000000 -1.000000
-0.000000 -0.000000 -1.000000
-0.592273 -0.000000 -0.805737
-0.592273 -0.000000 -0.805737
-0.000001 -0.000000 1.000000
0.000000 0.000000 1.000000
0.000000 0.000000 1.000000
0.000000 0.000000 1.000000
-0.000001 -0.000000 1.000000
-0.000001 -0.000000 1.000000
0.000000 -1.000000 0.000000
-0.000000 -1.000000 0.000000
-0.000000 -1.000000 0.000000
-0.000000 -1.000000 0.000000
0.000000 -1.000000 0.000000
0.000000 -1.000000 0.000000
</float_array>
          <technique_common>
            <accessor source="#video_view_02-lib-Normal0-array" count="144" stride="3">
              <param name="X" type="float"/>
              <param name="Y" type="float"/>
              <param name="Z" type="float"/>
            </accessor>
          </technique_common>
        </source>
        <source id="video_view_02-lib-UV0">
          <float_array id="video_view_02-lib-UV0-array" count="142">
0.128361 0.667216
0.236464 0.335993
0.022006 0.667216
0.615970 0.442423
0.128361 0.867994
0.615970 0.867994
0.128361 0.974349
0.615970 0.867994
0.022006 0.630892
0.128361 0.630892
0.164685 0.867994
0.164685 0.974349
0.128361 0.406108
0.236464 0.867994
0.236464 0.442423
0.236464 0.867994
0.128361 0.667205
0.164684 0.667205
0.164684 0.867994
0.128361 0.867994
0.022006 0.667203
0.128361 0.667203
0.128361 0.867993
0.022006 0.867993
0.022006 0.630890
0.022006 0.406108
0.128361 0.630890
0.236464 0.974349
0.236464 0.442423
0.236464 0.867994
0.164684 0.667205
0.128361 0.667205
0.128361 0.867994
0.164684 0.867994
0.615970 0.442348
0.236464 0.442348
0.615970 0.335993
0.615970 0.974348
0.615970 0.442423
0.615970 0.867994
0.976033 0.335666
0.761148 0.335666
0.707386 0.335666
0.630394 0.335666
0.707381 0.335666
0.761148 0.335666
0.976033 0.335666
0.976033 0.784495
0.761148 0.784495
0.707386 0.784495
0.630394 0.784495
0.707389 0.784495
0.761148 0.784495
0.976033 0.784495
0.707373 0.784495
0.976033 0.784495
0.762911 0.784495
0.714528 0.811649
0.694487 0.878489
0.714528 0.945330
0.762911 0.973016
0.976033 0.973016
0.976033 0.973016
0.762911 0.973016
0.714528 0.945330
0.694487 0.878489
0.714528 0.811649
0.762911 0.784495
0.976033 0.784495
0.630394 0.335666
0.630394 0.784495
</float_array>
          <technique_common>
            <accessor source="#video_view_02-lib-UV0-array" count="71" stride="2">
              <param name="S" type="float"/>
              <param name="T" type="float"/>
            </accessor>
          </technique_common>
        </source>
        <source id="video_view_02-lib-VertexColors0">
          <float_array id="video_view_02-lib-VertexColors0-array" count="120">
1.000000 1.000000 1.000000 1.000000
1.000000 1.000000 1.000000 1.000000
1.000000 1.000000 1.000000 1.000000
1.000000 1.000000 1.000000 1.000000
1.000000 1.000000 1.000000 1.000000
1.000000 1.000000 1.000000 1.000000
1.000000 1.000000 1.000000 1.000000
1.000000 1.000000 1.000000 1.000000
1.000000 1.000000 1.000000 1.000000
1.000000 1.000000 1.000000 1.000000
1.000000 1.000000 1.000000 1.000000
1.000000 1.000000 1.000000 1.000000
1.000000 1.000000 1.000000 1.000000
1.000000 1.000000 1.000000 1.000000
1.000000 1.000000 1.000000 1.000000
1.000000 1.000000 1.000000 1.000000
1.000000 1.000000 1.000000 1.000000
1.000000 1.000000 1.000000 1.000000
1.000000 1.000000 1.000000 1.000000
1.000000 1.000000 1.000000 1.000000
1.000000 1.000000 1.000000 1.000000
1.000000 1.000000 1.000000 1.000000
1.000000 1.000000 1.000000 1.000000
1.000000 1.000000 1.000000 1.000000
1.000000 1.000000 1.000000 1.000000
1.000000 1.000000 1.000000 1.000000
1.000000 1.000000 1.000000 1.000000
1.000000 1.000000 1.000000 1.000000
1.000000 1.000000 1.000000 1.000000
1.000000 1.000000 1.000000 1.000000
</float_array>
          <technique_common>
            <accessor source="#video_view_02-lib-VertexColors0-array" count="30" stride="4">
              <param name="R" type="double"/>
              <param name="G" type="double"/>
              <param name="B" type="double"/>
              <param name="A" type="double"/>
            </accessor>
          </technique_common>
        </source>
        <vertices id="video_view_02-lib-Vertex">
          <input semantic="POSITION" source="#video_view_02-lib-Position"/>
        </vertices>
        <polygons material="Ground_video_" count="48">
          <input semantic="VERTEX" offset="0" source="#video_view_02-lib-Vertex"/>
          <input semantic="NORMAL" offset="1" source="#video_view_02-lib-Normal0"/>
          <input semantic="TEXCOORD" offset="2" set="0" source="#video_view_02-lib-UV0"/>
          <input semantic="COLOR" offset="3" set="0" source="#video_view_02-lib-VertexColors0"/>
          <p>0 0 40 0 1 1 41 1 8 2 48 8</p>
          <p>8 3 48 8 7 4 47 7 0 5 40 0</p>
          <p>1 6 41 1 2 7 42 2 9 8 49 9</p>
          <p>9 9 49 9 8 10 48 8 1 11 41 1</p>
          <p>2 12 42 2 3 13 69 3 10 14 70 10</p>
          <p>10 15 70 10 9 16 49 9 2 17 42 2</p>
          <p>3 18 43 3 4 19 44 4 11 20 51 11</p>
          <p>11 21 51 11 10 22 50 10 3 23 43 3</p>
          <p>4 24 44 4 5 25 45 5 12 26 52 12</p>
          <p>12 27 52 12 11 28 54 11 4 29 44 4</p>
          <p>5 30 45 5 6 31 46 6 13 32 53 13</p>
          <p>13 33 53 13 12 34 52 12 5 35 45 5</p>
          <p>6 36 55 6 5 37 56 5 4 38 57 4</p>
          <p>4 39 57 4 3 40 58 3 6 41 55 6</p>
          <p>6 42 55 6 3 43 58 3 0 44 61 0</p>
          <p>3 45 58 3 2 46 59 2 0 47 61 0</p>
          <p>0 48 61 0 2 49 59 2 1 50 60 1</p>
          <p>7 51 62 7 8 52 63 8 9 53 64 9</p>
          <p>9 54 64 9 10 55 65 10 7 56 62 7</p>
          <p>7 57 62 7 10 58 65 10 13 59 68 13</p>
          <p>10 60 65 10 11 61 66 11 13 62 68 13</p>
          <p>13 63 68 13 11 64 66 11 12 65 67 12</p>
          <p>14 66 0 14 16 67 2 16 22 68 8 22</p>
          <p>22 69 8 22 23 70 9 23 14 71 0 14</p>
          <p>18 72 4 18 24 73 10 24 25 74 11 25</p>
          <p>25 75 11 25 20 76 6 20 18 77 4 18</p>
          <p>14 78 16 14 23 79 17 23 24 80 18 24</p>
          <p>24 81 18 24 18 82 19 18 14 83 16 14</p>
          <p>17 84 3 17 28 85 14 28 27 86 13 27</p>
          <p>27 87 13 27 21 88 7 21 17 89 3 17</p>
          <p>16 90 20 16 14 91 21 14 18 92 22 18</p>
          <p>18 93 22 18 20 94 23 20 16 95 20 16</p>
          <p>22 96 24 22 28 97 25 28 26 98 12 26</p>
          <p>26 99 12 26 23 100 26 23 22 101 24 22</p>
          <p>24 102 10 24 29 103 15 29 27 104 27 27</p>
          <p>27 105 27 27 25 106 11 25 24 107 10 24</p>
          <p>23 108 17 23 26 109 28 26 29 110 29 29</p>
          <p>29 111 29 29 24 112 18 24 23 113 17 23</p>
          <p>22 114 30 22 16 115 31 16 20 116 32 20</p>
          <p>20 117 32 20 25 118 33 25 22 119 30 22</p>
          <p>28 120 14 28 22 121 30 22 25 122 33 25</p>
          <p>25 123 33 25 27 124 13 27 28 125 14 28</p>
          <p>28 126 34 28 17 127 35 17 15 128 1 15</p>
          <p>15 129 1 15 26 130 36 26 28 131 34 28</p>
          <p>29 132 15 29 19 133 5 19 21 134 37 21</p>
          <p>21 135 37 21 27 136 27 27 29 137 15 29</p>
          <p>26 138 28 26 15 139 38 15 19 140 39 19</p>
          <p>19 141 39 19 29 142 29 29 26 143 28 26</p>
        </polygons>
      </mesh>
    </geometry>
    <geometry id="video_view_03-lib" name="video_view_03Mesh">
      <mesh>
        <source id="video_view_03-lib-Position">
          <float_array id="video_view_03-lib-Position-array" count="24">
-7.530334 -0.090000 0.000000
7.530334 -0.090000 0.000000
-7.530334 0.090000 0.000000
7.530334 0.090000 0.000000
-7.530334 -0.090000 8.000000
7.530334 -0.090000 8.000000
-7.530334 0.090000 8.000000
7.530334 0.090000 8.000000
</float_array>
          <technique_common>
            <accessor source="#video_view_03-lib-Position-array" count="8" stride="3">
              <param name="X" type="float"/>
              <param name="Y" type="float"/>
              <param name="Z" type="float"/>
            </accessor>
          </technique_common>
        </source>
        <source id="video_view_03-lib-Normal0">
          <float_array id="video_view_03-lib-Normal0-array" count="36">
0.000000 -1.000000 0.000000
0.000000 -1.000000 0.000000
0.000000 -1.000000 0.000000
0.000000 -1.000000 0.000000
0.000000 -1.000000 0.000000
0.000000 -1.000000 0.000000
0.000000 1.000000 0.000000
0.000000 1.000000 0.000000
0.000000 1.000000 0.000000
0.000000 1.000000 0.000000
0.000000 1.000000 0.000000
0.000000 1.000000 0.000000
</float_array>
          <technique_common>
            <accessor source="#video_view_03-lib-Normal0-array" count="12" stride="3">
              <param name="X" type="float"/>
              <param name="Y" type="float"/>
              <param name="Z" type="float"/>
            </accessor>
          </technique_common>
        </source>
        <source id="video_view_03-lib-UV0">
          <float_array id="video_view_03-lib-UV0-array" count="16">
0.003906 0.007285
0.996094 0.007285
0.996094 0.996094
0.003906 0.996094
0.003906 0.007285
0.996094 0.007285
0.996094 0.996094
0.003906 0.996094
</float_array>
          <technique_common>
            <accessor source="#video_view_03-lib-UV0-array" count="8" stride="2">
              <param name="S" type="float"/>
              <param name="T" type="float"/>
            </accessor>
          </technique_common>
        </source>
        <source id="video_view_03-lib-VertexColors0">
          <float_array id="video_view_03-lib-VertexColors0-array" count="32">
1.000000 1.000000 1.000000 1.000000
1.000000 1.000000 1.000000 1.000000
1.000000 1.000000 1.000000 1.000000
1.000000 1.000000 1.000000 1.000000
1.000000 1.000000 1.000000 1.000000
1.000000 1.000000 1.000000 1.000000
1.000000 1.000000 1.000000 1.000000
1.000000 1.000000 1.000000 1.000000
</float_array>
          <technique_common>
            <accessor source="#video_view_03-lib-VertexColors0-array" count="8" stride="4">
              <param name="R" type="double"/>
              <param name="G" type="double"/>
              <param name="B" type="double"/>
              <param name="A" type="double"/>
            </accessor>
          </technique_common>
        </source>
        <vertices id="video_view_03-lib-Vertex">
          <input semantic="POSITION" source="#video_view_03-lib-Position"/>
        </vertices>
        <polygons material="videoview_av2" count="4">
          <input semantic="VERTEX" offset="0" source="#video_view_03-lib-Vertex"/>
          <input semantic="NORMAL" offset="1" source="#video_view_03-lib-Normal0"/>
          <input semantic="TEXCOORD" offset="2" set="0" source="#video_view_03-lib-UV0"/>
          <input semantic="COLOR" offset="3" set="0" source="#video_view_03-lib-VertexColors0"/>
          <p>0 0 0 0 1 1 1 1 5 2 2 5</p>
          <p>5 3 2 5 4 4 3 4 0 5 0 0</p>
          <p>3 6 4 3 2 7 5 2 6 8 6 6</p>
          <p>6 9 6 6 7 10 7 7 3 11 4 3</p>
        </polygons>
      </mesh>
    </geometry>
  </library_geometries>
  <library_visual_scenes>
    <visual_scene id="RootNode" name="RootNode">
      <node id="video_view" name="video_view">
        <translate sid="translate">571.964722 21.836321 -123.388138</translate>
        <rotate sid="jointOrientX">1 0 0 -90.000000</rotate>
        <node id="video_view_02" name="video_view_02">
          <translate sid="translate">21.535522 0.000000 -0.606590</translate>
          <scale sid="scale">0.887267 1.229612 0.887267</scale>
          <instance_geometry url="#video_view_02-lib">
            <bind_material>
              <technique_common>
                <instance_material symbol="Ground_video_" target="#Ground_video_"/>
              </technique_common>
            </bind_material>
          </instance_geometry>
        </node>
        <node id="video_view_03" name="video_view_03">
          <translate sid="translate">-7.180542 0.072479 1.260536</translate>
          <scale sid="scale">2.521069 3.936275 2.521069</scale>
          <node id="video_view_03-Pivot" name="video_view_03-Pivot">
            <translate>0.000000 0.000000 -4.500000</translate>
            <rotate>0.000000 0.000000 0.000000 0.000000</rotate>
            <instance_geometry url="#video_view_03-lib">
              <bind_material>
                <technique_common>
                  <instance_material symbol="videoview_av2" target="#videoview_av2"/>
                </technique_common>
              </bind_material>
            </instance_geometry>
          </node>
        </node>
      </node>
    </visual_scene>
  </library_visual_scenes>
  <scene>
    <instance_visual_scene url="#RootNode"/>
  </scene>
</COLLADA>

