<?xml version="1.0" encoding="utf-8"?>
<COLLADA xmlns="http://www.collada.org/2005/11/COLLADASchema" version="1.4.1">
  <asset>
    <contributor>
      <author>Lys_han</author>
      <authoring_tool>OpenCOLLADA2009 Release Candidate</authoring_tool>
      <comments>
			ColladaMaya export options: 
			bakeTransforms=0;relativePaths=1;copyTextures=0;exportTriangles=0;exportCgfxFileReferences=1;
			isSampling=0;curveConstrainSampling=0;removeStaticCurves=1;exportPolygonMeshes=1;exportLights=1;
			exportCameras=1;exportJointsAndSkin=1;exportAnimations=1;exportInvisibleNodes=0;exportDefaultCameras=0;
			exportTexCoords=1;exportNormals=1;exportNormalsPerVertex=1;exportVertexColors=1;exportVertexColorsPerVertex=1;
			exportTexTangents=0;exportTangents=0;exportReferencedMaterials=1;exportMaterialsOnly=0;
			exportXRefs=1;dereferenceXRefs=1;exportCameraAsLookat=0;cameraXFov=0;cameraYFov=1;doublePrecision=0
		</comments>
      <source_data>file:///C:/Documents%20and%20Settings/Administrator/My%20Documents/maya/projects/default/untitled</source_data>
    </contributor>
    <created>2010-07-26T10:57:03</created>
    <modified>2010-07-26T10:57:03</modified>
    <unit name="centimeter" meter="0.01"/>
    <up_axis>Y_UP</up_axis>
  </asset>
  <library_materials>
    <material id="lambert2SG1" name="lambert2SG1">
      <instance_effect url="#lambert2SG1-fx"/>
    </material>
    <material id="___Default" name="___Default">
      <instance_effect url="#___Default-fx"/>
    </material>
    <material id="lambert3SG" name="lambert3SG">
      <instance_effect url="#lambert3SG-fx"/>
    </material>
  </library_materials>
  <library_effects>
    <effect id="___Default-fx">
      <profile_COMMON>
        <newparam sid="file1-surface">
          <surface type="2D">
            <init_from>file1</init_from>
          </surface>
        </newparam>
        <newparam sid="file1-sampler">
          <sampler2D>
            <source>file1-surface</source>
          </sampler2D>
        </newparam>
        <technique sid="common">
          <phong>
            <emission>
              <color>0 0 0 1</color>
            </emission>
            <ambient>
              <color>0.59 0.59 0.59 1</color>
            </ambient>
            <diffuse>
              <texture texture="file1-sampler" texcoord="TEX0">
                <extra>
                  <technique profile="OpenCOLLADAMaya">
                    <blend_mode>NONE</blend_mode>
                    <coverageU>1</coverageU>
                    <coverageV>1</coverageV>
                    <fast>0</fast>
                    <mirrorU>0</mirrorU>
                    <mirrorV>0</mirrorV>
                    <noiseU>0</noiseU>
                    <noiseV>0</noiseV>
                    <offsetU>0</offsetU>
                    <offsetV>0</offsetV>
                    <repeatU>1</repeatU>
                    <repeatV>1</repeatV>
                    <rotateFrame>0</rotateFrame>
                    <rotateUV>0</rotateUV>
                    <stagger>0</stagger>
                    <translateFrameU>0</translateFrameU>
                    <translateFrameV>0</translateFrameV>
                    <wrapU>1</wrapU>
                    <wrapV>1</wrapV>
                  </technique>
                </extra>
              </texture>
            </diffuse>
            <specular>
              <color>0 0 0 1</color>
            </specular>
            <shininess>
              <float>12</float>
            </shininess>
            <reflective>
              <color>0 0 0 1</color>
            </reflective>
            <reflectivity>
              <float>0.5</float>
            </reflectivity>
            <transparent opaque="A_ONE">
              <texture texture="file1-sampler" texcoord="TEX1">
                <extra>
                  <technique profile="OpenCOLLADAMaya">
                    <blend_mode>NONE</blend_mode>
                    <coverageU>1</coverageU>
                    <coverageV>1</coverageV>
                    <fast>0</fast>
                    <mirrorU>0</mirrorU>
                    <mirrorV>0</mirrorV>
                    <noiseU>0</noiseU>
                    <noiseV>0</noiseV>
                    <offsetU>0</offsetU>
                    <offsetV>0</offsetV>
                    <repeatU>1</repeatU>
                    <repeatV>1</repeatV>
                    <rotateFrame>0</rotateFrame>
                    <rotateUV>0</rotateUV>
                    <stagger>0</stagger>
                    <translateFrameU>0</translateFrameU>
                    <translateFrameV>0</translateFrameV>
                    <wrapU>1</wrapU>
                    <wrapV>1</wrapV>
                  </technique>
                </extra>
              </texture>
            </transparent>
            <transparency>
              <float>1</float>
            </transparency>
          </phong>
        </technique>
      </profile_COMMON>
    </effect>
    <effect id="lambert2SG1-fx">
      <profile_COMMON>
        <newparam sid="file4-surface">
          <surface type="2D">
            <init_from>file4</init_from>
          </surface>
        </newparam>
        <newparam sid="file4-sampler">
          <sampler2D>
            <source>file4-surface</source>
          </sampler2D>
        </newparam>
        <newparam sid="file6-surface">
          <surface type="2D">
            <init_from>file6</init_from>
          </surface>
        </newparam>
        <newparam sid="file6-sampler">
          <sampler2D>
            <source>file6-surface</source>
          </sampler2D>
        </newparam>
        <newparam sid="file5-surface">
          <surface type="2D">
            <init_from>file5</init_from>
          </surface>
        </newparam>
        <newparam sid="file5-sampler">
          <sampler2D>
            <source>file5-surface</source>
          </sampler2D>
        </newparam>
        <technique sid="common">
          <phong>
            <emission>
              <color>0 0 0 1</color>
            </emission>
            <ambient>
              <color>0 0 0 1</color>
            </ambient>
            <diffuse>
              <texture texture="file4-sampler" texcoord="TEX0">
                <extra>
                  <technique profile="OpenCOLLADAMaya">
                    <blend_mode>NONE</blend_mode>
                    <coverageU>1</coverageU>
                    <coverageV>1</coverageV>
                    <fast>0</fast>
                    <mirrorU>0</mirrorU>
                    <mirrorV>0</mirrorV>
                    <noiseU>0</noiseU>
                    <noiseV>0</noiseV>
                    <offsetU>0</offsetU>
                    <offsetV>0</offsetV>
                    <repeatU>1</repeatU>
                    <repeatV>1</repeatV>
                    <rotateFrame>0</rotateFrame>
                    <rotateUV>0</rotateUV>
                    <stagger>0</stagger>
                    <translateFrameU>0</translateFrameU>
                    <translateFrameV>0</translateFrameV>
                    <wrapU>1</wrapU>
                    <wrapV>1</wrapV>
                  </technique>
                </extra>
              </texture>
            </diffuse>
            <specular>
              <texture texture="file6-sampler" texcoord="TEX2">
                <extra>
                  <technique profile="OpenCOLLADAMaya">
                    <blend_mode>NONE</blend_mode>
                    <coverageU>1</coverageU>
                    <coverageV>1</coverageV>
                    <fast>0</fast>
                    <mirrorU>0</mirrorU>
                    <mirrorV>0</mirrorV>
                    <noiseU>0</noiseU>
                    <noiseV>0</noiseV>
                    <offsetU>0</offsetU>
                    <offsetV>0</offsetV>
                    <repeatU>1</repeatU>
                    <repeatV>1</repeatV>
                    <rotateFrame>0</rotateFrame>
                    <rotateUV>0</rotateUV>
                    <stagger>0</stagger>
                    <translateFrameU>0</translateFrameU>
                    <translateFrameV>0</translateFrameV>
                    <wrapU>1</wrapU>
                    <wrapV>1</wrapV>
                  </technique>
                </extra>
              </texture>
            </specular>
            <shininess>
              <float>32</float>
            </shininess>
            <reflective>
              <color>0 0 0 1</color>
            </reflective>
            <reflectivity>
              <float>0.5</float>
            </reflectivity>
            <transparent opaque="RGB_ZERO">
              <color>0 0 0 1</color>
            </transparent>
            <transparency>
              <float>1</float>
            </transparency>
          </phong>
          <extra>
            <technique profile="OpenCOLLADAMaya">
              <bump>
                <texture texture="file5-sampler" texcoord="TEX1">
                  <extra>
                    <technique profile="OpenCOLLADA3dsMax">
                      <amount>1</amount>
                      <bumpInterp>1</bumpInterp>
                    </technique>
                    <technique profile="OpenCOLLADAMaya">
                      <blend_mode>NONE</blend_mode>
                      <coverageU>1</coverageU>
                      <coverageV>1</coverageV>
                      <fast>0</fast>
                      <mirrorU>0</mirrorU>
                      <mirrorV>0</mirrorV>
                      <noiseU>0</noiseU>
                      <noiseV>0</noiseV>
                      <offsetU>0</offsetU>
                      <offsetV>0</offsetV>
                      <repeatU>1</repeatU>
                      <repeatV>1</repeatV>
                      <rotateFrame>0</rotateFrame>
                      <rotateUV>0</rotateUV>
                      <stagger>0</stagger>
                      <translateFrameU>0</translateFrameU>
                      <translateFrameV>0</translateFrameV>
                      <wrapU>1</wrapU>
                      <wrapV>1</wrapV>
                    </technique>
                  </extra>
                </texture>
              </bump>
            </technique>
          </extra>
        </technique>
      </profile_COMMON>
    </effect>
    <effect id="lambert3SG-fx">
      <profile_COMMON>
        <newparam sid="file3-surface">
          <surface type="2D">
            <init_from>file3</init_from>
          </surface>
        </newparam>
        <newparam sid="file3-sampler">
          <sampler2D>
            <source>file3-surface</source>
          </sampler2D>
        </newparam>
        <newparam sid="file2-surface">
          <surface type="2D">
            <init_from>file2</init_from>
          </surface>
        </newparam>
        <newparam sid="file2-sampler">
          <sampler2D>
            <source>file2-surface</source>
          </sampler2D>
        </newparam>
        <technique sid="common">
          <lambert>
            <emission>
              <texture texture="file3-sampler" texcoord="TEX0">
                <extra>
                  <technique profile="OpenCOLLADAMaya">
                    <blend_mode>NONE</blend_mode>
                    <coverageU>1</coverageU>
                    <coverageV>1</coverageV>
                    <fast>0</fast>
                    <mirrorU>0</mirrorU>
                    <mirrorV>0</mirrorV>
                    <noiseU>0</noiseU>
                    <noiseV>0</noiseV>
                    <offsetU>0</offsetU>
                    <offsetV>0</offsetV>
                    <repeatU>1</repeatU>
                    <repeatV>1</repeatV>
                    <rotateFrame>0</rotateFrame>
                    <rotateUV>0</rotateUV>
                    <stagger>0</stagger>
                    <translateFrameU>0</translateFrameU>
                    <translateFrameV>0</translateFrameV>
                    <wrapU>1</wrapU>
                    <wrapV>1</wrapV>
                  </technique>
                </extra>
              </texture>
            </emission>
            <ambient>
              <color>0 0 0 1</color>
            </ambient>
            <diffuse>
              <texture texture="file2-sampler" texcoord="TEX1">
                <extra>
                  <technique profile="OpenCOLLADAMaya">
                    <blend_mode>NONE</blend_mode>
                    <coverageU>1</coverageU>
                    <coverageV>1</coverageV>
                    <fast>0</fast>
                    <mirrorU>0</mirrorU>
                    <mirrorV>0</mirrorV>
                    <noiseU>0</noiseU>
                    <noiseV>0</noiseV>
                    <offsetU>0</offsetU>
                    <offsetV>0</offsetV>
                    <repeatU>1</repeatU>
                    <repeatV>1</repeatV>
                    <rotateFrame>0</rotateFrame>
                    <rotateUV>0</rotateUV>
                    <stagger>0</stagger>
                    <translateFrameU>0</translateFrameU>
                    <translateFrameV>0</translateFrameV>
                    <wrapU>1</wrapU>
                    <wrapV>1</wrapV>
                  </technique>
                </extra>
              </texture>
            </diffuse>
            <transparent opaque="A_ONE">
              <texture texture="file2-sampler" texcoord="TEX2">
                <extra>
                  <technique profile="OpenCOLLADAMaya">
                    <blend_mode>NONE</blend_mode>
                    <coverageU>1</coverageU>
                    <coverageV>1</coverageV>
                    <fast>0</fast>
                    <mirrorU>0</mirrorU>
                    <mirrorV>0</mirrorV>
                    <noiseU>0</noiseU>
                    <noiseV>0</noiseV>
                    <offsetU>0</offsetU>
                    <offsetV>0</offsetV>
                    <repeatU>1</repeatU>
                    <repeatV>1</repeatV>
                    <rotateFrame>0</rotateFrame>
                    <rotateUV>0</rotateUV>
                    <stagger>0</stagger>
                    <translateFrameU>0</translateFrameU>
                    <translateFrameV>0</translateFrameV>
                    <wrapU>1</wrapU>
                    <wrapV>1</wrapV>
                  </technique>
                </extra>
              </texture>
            </transparent>
            <transparency>
              <float>1</float>
            </transparency>
          </lambert>
        </technique>
      </profile_COMMON>
    </effect>
  </library_effects>
  <library_images>
    <image id="file5" name="file5">
      <init_from>./01_n.tga</init_from>
      <extra>
        <technique profile="OpenCOLLADAMaya">
          <dgnode_type>kFile</dgnode_type>
          <image_sequence>0</image_sequence>
          <originalMayaNodeId>file5</originalMayaNodeId>
        </technique>
      </extra>
    </image>
    <image id="file4" name="file4">
      <init_from>./01c.tga</init_from>
      <extra>
        <technique profile="OpenCOLLADAMaya">
          <dgnode_type>kFile</dgnode_type>
          <image_sequence>0</image_sequence>
          <originalMayaNodeId>file4</originalMayaNodeId>
        </technique>
      </extra>
    </image>
    <image id="file6" name="file6">
      <init_from>./01s.tga</init_from>
      <extra>
        <technique profile="OpenCOLLADAMaya">
          <dgnode_type>kFile</dgnode_type>
          <image_sequence>0</image_sequence>
          <originalMayaNodeId>file6</originalMayaNodeId>
        </technique>
      </extra>
    </image>
    <image id="file1" name="file1">
      <init_from>./02c.tga</init_from>
      <extra>
        <technique profile="OpenCOLLADAMaya">
          <dgnode_type>kFile</dgnode_type>
          <image_sequence>0</image_sequence>
          <originalMayaNodeId>file1</originalMayaNodeId>
        </technique>
      </extra>
    </image>
    <image id="file2" name="file2">
      <init_from>./x.tga</init_from>
      <extra>
        <technique profile="OpenCOLLADAMaya">
          <dgnode_type>kFile</dgnode_type>
          <image_sequence>0</image_sequence>
          <originalMayaNodeId>file2</originalMayaNodeId>
        </technique>
      </extra>
    </image>
    <image id="file3" name="file3">
      <init_from>./x_e.tga</init_from>
      <extra>
        <technique profile="OpenCOLLADAMaya">
          <dgnode_type>kFile</dgnode_type>
          <image_sequence>0</image_sequence>
          <originalMayaNodeId>file3</originalMayaNodeId>
        </technique>
      </extra>
    </image>
  </library_images>
  <library_geometries>
    <geometry id="polySurface9Shape" name="polySurface9Shape">
      <mesh>
        <source id="polySurface9Shape-positions" name="polySurface9Shape-positions">
          <float_array id="polySurface9Shape-positions-array" count="816">0.1525 0.6249 -0.9739 0.0291 0.614 -0.6938 0.2981 0.614 -0.6584 0.4416 0.6248 -0.8802 5e-4 0.6249 -0.9735 -0.1517 0.6249 -0.9741 -0.3004 0.614 -0.6851 -0.4406 0.6248 -0.8804 0.0154 0.6251 0.4575 -0.4454 0.6251 0.8794 -0.1531 0.6251 0.9737 0.1537 0.6251 0.9737 0.4734 0.6251 0.4453 0.4458 0.6251 0.8792 0.6925 0.6251 0.7002 0.0214 0.6251 -0.0462 0.0149 0.6251 0.0789 0.213 0.6251 0.0533 0.1749 0.6251 -0.0741 -0.2119 0.6196 -0.4467 0.0327 0.6196 -0.4511 0.2119 0.6196 -0.4335 -0.1655 0.6224 -0.2354 0.0247 0.6224 -0.2274 0.1789 0.6224 -0.2459 -0.143 0.6251 -0.0679 -0.1555 0.6251 0.066 -0.4408 0.6251 0.466 -0.6917 0.6251 0.7008 0.3343 0.6251 0.2563 0.012 0.6251 0.2612 -0.2643 0.6251 0.2716 0.1556 0.5642 -0.9829 0.1551 0.619 -0.98 0.4445 0.619 -0.886 0.4454 0.5642 -0.8889 0.3052 0.553 -0.6596 0.4485 0.5638 -0.8815 0.4476 0.6187 -0.8786 0.305 0.6079 -0.6587 -10e-5 0.5642 -0.9829 -10e-5 0.619 -0.9799 -0.1558 0.5642 -0.9828 -0.4456 0.5642 -0.8889 -0.4447 0.619 -0.8859 -0.1553 0.619 -0.9799 -0.3075 0.553 -0.686 -0.3073 0.6079 -0.685 -0.4469 0.6188 -0.879 -0.4479 0.5639 -0.882 -0.4502 0.5641 0.8838 -0.4502 0.619 0.8838 -0.6963 0.619 0.705 -0.6963 0.5641 0.705 -0.4496 0.5641 0.4662 -0.6968 0.5641 0.6972 -0.6968 0.619 0.6972 -0.4496 0.619 0.4662 -0.155 0.5641 0.9796 -0.155 0.619 0.9796 0.1553 0.5641 0.9796 0.1553 0.619 0.9796 0.4504 0.5641 0.8837 0.4504 0.619 0.8837 0.6965 0.5641 0.7048 0.6965 0.619 0.7048 0.4811 0.5641 0.4451 0.4811 0.619 0.4451 0.6974 0.619 0.6966 0.6974 0.5641 0.6966 -0.1618 0.5641 0.0655 -0.1618 0.619 0.0655 -0.1492 0.619 -0.0686 -0.1491 0.5641 -0.0683 0.1807 0.5641 -0.0748 0.1809 0.619 -0.0752 0.2194 0.619 0.0525 0.2194 0.5641 0.0525 -0.2179 0.5585 -0.4456 -0.2182 0.6135 -0.4465 0.2181 0.5585 -0.4329 0.2185 0.6135 -0.4338 -0.1715 0.5613 -0.2349 -0.1717 0.6163 -0.2356 0.1852 0.6163 -0.2466 0.1848 0.5613 -0.2459 0.3416 0.5641 0.2562 0.3416 0.619 0.2562 -0.272 0.619 0.2719 -0.272 0.5641 0.2719 0.9282 0.2182 -0.9285 0.8626 0.113 -0.8628 0.5537 0.113 -1.0871 0.5959 0.2182 -1.1699 0.1907 0.113 -1.205 0.2052 0.2182 -1.2967 -0.191 0.113 -1.205 -0.2055 0.2182 -1.2967 -0.554 0.113 -1.087 -0.5962 0.2182 -1.1697 -0.8628 0.113 -0.8626 -0.9285 0.2182 -0.9282 -1.0871 0.113 -0.5537 -1.1699 0.2182 -0.5959 -1.205 0.113 -0.1907 -1.2967 0.2182 -0.2052 -1.205 0.113 0.191 -1.2967 0.2182 0.2055 -1.087 0.113 0.554 -1.1697 0.2182 0.5962 -0.8626 0.113 0.8628 -0.9282 0.2182 0.9285 0.9285 0.2182 0.9282 0.8628 0.113 0.8626 1.0871 0.113 0.5537 1.1699 0.2182 0.5959 1.205 0.113 0.1907 1.2967 0.2182 0.2052 1.205 0.113 -0.191 1.2967 0.2182 -0.2055 1.087 0.113 -0.554 1.1697 0.2182 -0.5962 0.4502 0.0889 -0.8838 0.7012 0.0889 -0.7014 0 0.0889 0 0.155 0.0889 -0.9796 -0.1553 0.0889 -0.9796 -0.4504 0.0889 -0.8837 -0.7014 0.0889 -0.7012 -0.8838 0.0889 -0.4502 -0.9796 0.0889 -0.155 -0.9796 0.0889 0.1553 -0.8837 0.0889 0.4504 -0.7012 0.0889 0.7014 -0.4502 0.0889 0.8838 -0.155 0.0889 0.9796 0.1553 0.0889 0.9796 0.4504 0.0889 0.8837 0.7014 0.0889 0.7012 0.8838 0.0889 0.4502 0.9796 0.0889 0.155 0.9796 0.0889 -0.1553 0.8837 0.0889 -0.4504 0.7012 0.5691 -0.7014 0.4502 0.5691 -0.8838 0 0.5691 0 0.155 0.5691 -0.9796 -0.1553 0.5691 -0.9796 -0.4504 0.5691 -0.8837 -0.7014 0.5691 -0.7012 -0.8838 0.5691 -0.4502 -0.9796 0.5691 -0.155 -0.9796 0.5691 0.1553 -0.8837 0.5691 0.4504 -0.7012 0.5691 0.7014 -0.4502 0.5691 0.8838 -0.155 0.5691 0.9796 0.1553 0.5691 0.9796 0.4504 0.5691 0.8837 0.7014 0.5691 0.7012 0.8838 0.5691 0.4502 0.9796 0.5691 0.155 0.9796 0.5691 -0.1553 0.8837 0.5691 -0.4504 0.8456 0.089 -0.8458 0.5428 0.089 -1.0657 1.0656 0.089 -0.5431 0.1869 0.089 -1.1813 -0.1872 0.089 -1.1813 -0.5431 0.089 -1.0656 -0.8458 0.089 -0.8456 -1.0657 0.089 -0.5428 -1.1813 0.089 -0.1869 -1.1813 0.089 0.1872 -1.0656 0.089 0.5431 -0.8456 0.089 0.8458 0.8458 0.089 0.8456 1.0657 0.089 0.5428 1.1813 0.089 0.1869 1.1813 0.089 -0.1872 1.087 0.545 -0.554 0.8626 0.545 -0.8628 0.8456 0.569 -0.8458 1.0656 0.569 -0.5431 0.5428 0.569 -1.0657 0.5537 0.545 -1.0871 0.1869 0.569 -1.1813 0.1907 0.545 -1.205 -0.1872 0.569 -1.1813 -0.191 0.545 -1.205 -0.5431 0.569 -1.0656 -0.554 0.545 -1.087 -0.8458 0.569 -0.8456 -0.8628 0.545 -0.8626 -1.0657 0.569 -0.5428 -1.0871 0.545 -0.5537 -1.1813 0.569 -0.1869 -1.205 0.545 -0.1907 -1.1813 0.569 0.1872 -1.205 0.545 0.191 -1.0656 0.569 0.5431 -1.087 0.545 0.554 -0.8456 0.569 0.8458 -0.8626 0.545 0.8628 1.0657 0.569 0.5428 0.8458 0.569 0.8456 0.8628 0.545 0.8626 1.0871 0.545 0.5537 1.1813 0.569 0.1869 1.205 0.545 0.1907 1.1813 0.569 -0.1872 1.205 0.545 -0.191 -1.1697 0.4397 0.5962 -1.194 0.329 0.6086 -0.9475 0.329 0.9477 -0.9282 0.4397 0.9285 -1.2967 0.4397 0.2055 -1.3236 0.329 0.2098 -1.2967 0.4397 -0.2052 -1.3237 0.329 -0.2095 -1.1699 0.4397 -0.5959 -1.1942 0.329 -0.6083 -0.9285 0.4397 -0.9282 -0.9477 0.329 -0.9475 -0.5962 0.4397 -1.1697 -0.6086 0.329 -1.194 -0.2055 0.4397 -1.2967 -0.2098 0.329 -1.3236 0.2052 0.4397 -1.2967 0.2095 0.329 -1.3237 0.5959 0.4397 -1.1699 0.6083 0.329 -1.1942 0.9282 0.4397 -0.9285 0.9475 0.329 -0.9477 1.1697 0.4397 -0.5962 1.194 0.329 -0.6086 1.2967 0.4397 -0.2055 1.3236 0.329 -0.2098 1.2967 0.4397 0.2052 1.3237 0.329 0.2095 1.1699 0.4397 0.5959 1.1941 0.329 0.6083 0.9285 0.4397 0.9282 0.9477 0.329 0.9475 -0.9094 0.2302 0.9148 -0.8422 0.1216 0.8457 0.9096 0.2302 0.9146 0.8468 0.1313 0.851 0.838 0.1119 0.84 -0.8422 0.5363 0.8457 0.838 0.546 0.84 0.8468 0.5266 0.851 0.9266 0.329 0.9321 0.9096 0.4277 0.9146 -0.9094 0.4277 0.9148 -0.9263 0.329 0.9323 -0.7012 0.1159 0.7014 -0.4502 0.1158 0.8838 -0.155 0.1158 0.9796 0.1553 0.1158 0.9796 0.4504 0.1158 0.8837 0.7014 0.1159 0.7012 -0.7012 0.5421 0.7014 -0.4502 0.5421 0.8838 -0.155 0.5421 0.9796 0.1553 0.5421 0.9796 0.4504 0.5421 0.8837 0.7014 0.5421 0.7012 -0.4501 0.1159 0.8838 -0.155 0.1159 0.9796 0.1553 0.1159 0.9796 0.4504 0.1159 0.8836</float_array>
          <technique_common>
            <accessor source="#polySurface9Shape-positions-array" count="272" stride="3">
              <param name="X" type="float"/>
              <param name="Y" type="float"/>
              <param name="Z" type="float"/>
            </accessor>
          </technique_common>
        </source>
        <source id="polySurface9Shape-normals" name="polySurface9Shape-normals">
          <float_array id="polySurface9Shape-normals-array" count="3177">-0.004300002 0.9992453 0.03860201 0 0.9998288 0.018501 -0.002999999 0.9999666 0.007599997 -0.008699995 0.9992245 0.03840098 0 0.9992468 0.03880199 0.003300001 0.9991983 0.03990001 0 0.9998288 0.018501 0.003099999 0.9999537 0.009099998 0 0.9998288 0.018501 0.003300001 0.9991983 0.03990001 0.006699996 0.9991325 0.04110098 0 0.9999999 0 0 0.9999999 0 0 0.9999999 0 0 0.9999999 0 0 0.9999999 0 0 0.9999999 0 0 0.9999999 0 0 0.9999999 0 0 0.9999999 0 0 0.9999999 0 -3e-4 0.9999686 -0.007899996 0 0.9999999 0 0 0.9999999 0 -0.0012 0.9999681 -0.007900001 -2e-4 0.9998396 -0.01790099 6e-4 0.999836 -0.018101 0 0.9998288 0.018501 0.003099999 0.9999537 0.009099998 0 0.9998288 0.018501 6e-4 0.999836 -0.018101 0.001399999 0.9998296 -0.01840099 -0.002999999 0.9999666 0.007599997 7e-4 0.9998961 -0.0144 -2e-4 0.9998948 -0.0145 6e-4 0.999836 -0.018101 -2e-4 0.9998396 -0.01790099 6e-4 0.999836 -0.018101 -2e-4 0.9998948 -0.0145 -0.0012 0.9998926 -0.01459999 0.001399999 0.9998296 -0.01840099 7e-4 0.9999677 -0.007999998 -3e-4 0.9999686 -0.007899996 -2e-4 0.9998948 -0.0145 7e-4 0.9998961 -0.0144 -2e-4 0.9998948 -0.0145 -3e-4 0.9999686 -0.007899996 -0.0012 0.9999681 -0.007900001 -0.0012 0.9998926 -0.01459999 0 0.9999999 0 0 0.9999999 0 -3e-4 0.9999686 -0.007899996 7e-4 0.9999677 -0.007999998 0 0.9999999 0 0 0.9999999 0 0 0.9999999 0 0 0.9999999 0 0 0.9999999 0 0 0.9999999 0 0 0.9999999 0 -0.004300002 0.9992453 0.03860201 0 0.9992468 0.03880199 0 0.9998288 0.018501 0 0.9999999 0 0 0.9999999 0 0 0.9999999 0 0 0.9999999 0 0 0.9999999 0 0 0.9999999 0 0 0.9999999 0 0 0.9999999 0 0 0.9999999 0 0 0.9999999 0 0 0.9999999 0 0 0.9999999 0 0 0.9999999 0 0 0.9999999 0 0 0.9999999 0 0 0.9999999 0 0.156 0.05540001 -0.9862022 0.156 0.05540001 -0.9862022 0.3082979 0.05509999 -0.9496927 0.3082979 0.05509999 -0.9496927 0.8913512 -0.005900002 0.4532751 0.8398039 -0.009699999 0.5428029 0.8398039 -0.009699999 0.5428029 0.8913512 -0.005900002 0.4532751 -2e-4 0.054202 -0.9985299 -2e-4 0.054202 -0.9985299 0.156 0.05540001 -0.9862022 0.156 0.05540001 -0.9862022 -0.156196 0.05529898 -0.9861767 -0.3082941 0.05529903 -0.9496825 -0.3082941 0.05529903 -0.9496825 -0.156196 0.05529898 -0.9861767 -0.8824896 -0.005899998 0.4702948 -0.8824896 -0.005899998 0.4702948 -0.8126009 -0.0118 0.582701 -0.8126009 -0.0118 0.582701 -0.4538811 0 0.8910623 -0.4538811 0 0.8910623 -0.5876901 0 0.8090861 -0.5876901 0 0.8090861 -0.7110954 0 -0.7030954 -0.6828027 0 -0.7306027 -0.6828027 0 -0.7306027 -0.7110954 0 -0.7030954 -0.1563011 0 0.9877095 -0.1563011 0 0.9877095 -0.4538811 0 0.8910623 -0.4538811 0 0.8910623 0.156594 0 0.987663 0.156594 0 0.987663 -0.1563011 0 0.9877095 -0.1563011 0 0.9877095 0.454121 0 0.89094 0.454121 0 0.89094 0.156594 0 0.987663 0.156594 0 0.987663 0.454121 0 0.89094 0.587916 0 0.8089219 0.587916 0 0.8089219 0.454121 0 0.89094 0.7818143 0 -0.6235113 0.7818143 0 -0.6235113 0.7580695 0 -0.6521736 0.7580695 0 -0.6521736 -0.9575366 -5e-4 -0.2883109 -0.9575366 -5e-4 -0.2883109 -0.9998013 -9.99999e-4 0.01989999 -0.9998013 -9.99999e-4 0.01989999 0.9909328 -0.003799999 -0.134304 0.9909328 -0.003799999 -0.134304 0.9141854 -0.001399999 -0.4052937 0.9141854 -0.001399999 -0.4052937 -0.9590912 -2e-4 0.2830971 -0.9590912 -2e-4 0.2830971 -0.8824896 -0.005899998 0.4702948 -0.8824896 -0.005899998 0.4702948 0.9633271 -0.003400001 0.268308 0.8913512 -0.005900002 0.4532751 0.8913512 -0.005900002 0.4532751 0.9633271 -0.003400001 0.268308 -0.9846581 -8e-4 0.174493 -0.9846581 -8e-4 0.174493 -0.9590912 -2e-4 0.2830971 -0.9590912 -2e-4 0.2830971 0.9633271 -0.003400001 0.268308 0.9633271 -0.003400001 0.268308 0.9949451 -0.004800001 0.100305 0.9949451 -0.004800001 0.100305 -0.9998013 -9.99999e-4 0.01989999 -0.9998013 -9.99999e-4 0.01989999 -0.9846581 -8e-4 0.174493 -0.9846581 -8e-4 0.174493 0.9949451 -0.004800001 0.100305 0.9949451 -0.004800001 0.100305 0.9909328 -0.003799999 -0.134304 0.9909328 -0.003799999 -0.134304 -0.156196 0.05529898 -0.9861767 -0.156196 0.05529898 -0.9861767 -2e-4 0.054202 -0.9985299 -2e-4 0.054202 -0.9985299 0.8319886 0 -0.5547927 0.8319886 0 -0.5547927 0.7818143 0 -0.6235113 0.7818143 0 -0.6235113 -0.7110954 0 -0.7030954 -0.7110954 0 -0.7030954 -0.8165214 0 -0.5773153 -0.8165214 0 -0.5773153 0.9141854 -0.001399999 -0.4052937 0.9141854 -0.001399999 -0.4052937 0.8319886 0 -0.5547927 0.8319886 0 -0.5547927 -0.8165214 0 -0.5773153 -0.8165214 0 -0.5773153 -0.9575366 -5e-4 -0.2883109 -0.9575366 -5e-4 -0.2883109 0.9211481 0.036698 -0.3874781 0.9211481 0.036698 -0.3874781 0.9211481 0.036698 -0.3874781 0.9211481 0.036698 -0.3874781 0.103206 0.7405418 -0.6640378 0.103206 0.7405418 -0.6640378 0.206309 0.7444309 -0.6350269 0.206309 0.7444309 -0.6350269 0.6313062 0.7020072 0.3296031 0.6005261 0.6792302 0.4219181 0.6005261 0.6792302 0.4219181 0.6313062 0.7020072 0.3296031 2e-4 0.7248297 -0.6889278 2e-4 0.7248297 -0.6889278 0.103206 0.7405418 -0.6640378 0.103206 0.7405418 -0.6640378 0.6731818 0.7189808 0.172895 0.6313062 0.7020072 0.3296031 0.6313062 0.7020072 0.3296031 0.6731818 0.7189808 0.172895 -0.102795 0.737963 -0.666966 2e-4 0.7248297 -0.6889278 2e-4 0.7248297 -0.6889278 -0.102795 0.737963 -0.666966 -0.2057999 0.7457007 -0.6337008 -0.102795 0.737963 -0.666966 -0.102795 0.737963 -0.666966 -0.2057999 0.7457007 -0.6337008 -0.9498268 0.03320099 -0.3110089 -0.9498268 0.03320099 -0.3110089 -0.9498268 0.03320099 -0.3110089 -0.9498268 0.03320099 -0.3110089 -0.6224178 0.7035198 0.3430099 -0.6224178 0.7035198 0.3430099 -0.5765907 0.6804886 0.4521928 -0.5765907 0.6804886 0.4521928 -0.6753693 0.7136672 0.1858911 -0.6753693 0.7136672 0.1858911 -0.6224178 0.7035198 0.3430099 -0.6224178 0.7035198 0.3430099 -0.9980947 0 0.06169998 -0.9980947 0 0.06169998 -0.9980947 0 0.06169998 -0.9980947 0 0.06169998 -0.317795 0.710288 0.6280901 -0.317795 0.710288 0.6280901 -0.4104981 0.7150971 0.565798 -0.4104981 0.7150971 0.565798 -0.5085009 0.6998019 -0.5017009 -0.487303 0.7007049 -0.521103 -0.487303 0.7007049 -0.521103 -0.5085009 0.6998019 -0.5017009 -0.1112029 0.7002167 0.7052166 -0.1112029 0.7002167 0.7052166 -0.317795 0.710288 0.6280901 -0.317795 0.710288 0.6280901 -0.5756091 0.7094112 -0.4067061 -0.5085009 0.6998019 -0.5017009 -0.5085009 0.6998019 -0.5017009 -0.5756091 0.7094112 -0.4067061 0.1114991 0.6999924 0.7053924 -0.1112029 0.7002167 0.7052166 -0.1112029 0.7002167 0.7052166 0.1114991 0.6999924 0.7053924 0.318395 0.709488 0.6286901 0.1114991 0.6999924 0.7053924 0.1114991 0.6999924 0.7053924 0.318395 0.709488 0.6286901 0.4112939 0.7140898 0.5664918 0.318395 0.709488 0.6286901 0.318395 0.709488 0.6286901 0.4112939 0.7140898 0.5664918 0.9932845 0 0.1156981 0.9932845 0 0.1156981 0.9932845 0 0.1156981 0.9932845 0 0.1156981 0.554318 0.705422 -0.441714 0.554318 0.705422 -0.441714 0.5392937 0.7028916 -0.4637948 0.5392937 0.7028916 -0.4637948 0.5883825 0.7073795 -0.3916887 0.5883825 0.7073795 -0.3916887 0.554318 0.705422 -0.441714 0.554318 0.705422 -0.441714 -0.5756091 0.7094112 -0.4067061 -0.6626992 0.7220992 -0.1985001 -0.6626992 0.7220992 -0.1985001 -0.5756091 0.7094112 -0.4067061 -0.7015069 0.712607 0.008899999 -0.6626992 0.7220992 -0.1985001 -0.6626992 0.7220992 -0.1985001 -0.7015069 0.712607 0.008899999 -0.6971297 0.7080307 0.112705 -0.6971297 0.7080307 0.112705 -0.7015069 0.712607 0.008899999 -0.7015069 0.712607 0.008899999 0.69288 0.71428 -0.098597 0.69288 0.71428 -0.098597 0.6420028 0.7122027 -0.2839009 0.6420028 0.7122027 -0.2839009 0.5883825 0.7073795 -0.3916887 0.5883825 0.7073795 -0.3916887 0.6420028 0.7122027 -0.2839009 0.6420028 0.7122027 -0.2839009 0.697901 0.713801 0.0585 0.69288 0.71428 -0.098597 0.69288 0.71428 -0.098597 0.697901 0.713801 0.0585 -0.6971297 0.7080307 0.112705 -0.6971297 0.7080307 0.112705 -0.6753693 0.7136672 0.1858911 -0.6753693 0.7136672 0.1858911 0.697901 0.713801 0.0585 0.6731818 0.7189808 0.172895 0.6731818 0.7189808 0.172895 0.697901 0.713801 0.0585 0.7183713 0.6394743 -0.2738891 0.7183713 0.6394743 -0.2738891 0.7183713 0.6394743 -0.2738891 -0.6988042 0.6864042 -0.201301 -0.6988042 0.6864042 -0.201301 -0.6988042 0.6864042 -0.201301 -0.7794341 0.6246271 0.04820201 -0.7794341 0.6246271 0.04820201 -0.7794341 0.6246271 0.04820201 0.79827 0.595077 0.092996 0.79827 0.595077 0.092996 0.79827 0.595077 0.092996 0.6261756 -0.4642818 -0.6263756 0.530109 -0.661712 -0.530209 0.340299 -0.661697 -0.668097 0.4019971 -0.4642961 -0.7891942 0.4019971 -0.4642961 -0.7891942 0.340299 -0.661697 -0.668097 0.1171959 -0.6616766 -0.7405735 0.1384 -0.4642991 -0.8747981 0.1384 -0.4642991 -0.8747981 0.1171959 -0.6616766 -0.7405735 -0.117402 -0.66171 -0.740511 -0.138694 -0.4642799 -0.8747618 -0.138694 -0.4642799 -0.8747618 -0.117402 -0.66171 -0.740511 -0.3404981 -0.6616963 -0.6679962 -0.4021959 -0.4642959 -0.7890929 -0.4021959 -0.4642959 -0.7890929 -0.3404981 -0.6616963 -0.6679962 -0.530209 -0.661712 -0.530109 -0.6263756 -0.4642817 -0.6261756 -0.6263756 -0.4642817 -0.6261756 -0.530209 -0.661712 -0.530109 -0.668097 -0.661697 -0.340299 -0.7891942 -0.4642961 -0.4019971 -0.7891942 -0.4642961 -0.4019971 -0.668097 -0.661697 -0.340299 -0.7405734 -0.6616765 -0.1171959 -0.8747981 -0.4642991 -0.1384 -0.8747981 -0.4642991 -0.1384 -0.7405734 -0.6616765 -0.1171959 -0.740511 -0.66171 0.117402 -0.8747618 -0.4642799 0.138694 -0.8747618 -0.4642799 0.138694 -0.740511 -0.66171 0.117402 -0.6679962 -0.6616963 0.3404981 -0.7890929 -0.4642959 0.4021959 -0.7890929 -0.4642959 0.4021959 -0.6679962 -0.6616963 0.3404981 -0.6097811 -0.6570792 0.4431861 -0.7183632 -0.4597761 0.5220731 0.7184864 -0.4597912 0.5218902 0.6098978 -0.6570978 0.4429979 0.668097 -0.661697 0.340299 0.7891942 -0.4642961 0.4019971 0.7891942 -0.4642961 0.4019971 0.668097 -0.661697 0.340299 0.7405734 -0.6616765 0.1171959 0.8747981 -0.4642991 0.1384 0.8747981 -0.4642991 0.1384 0.7405734 -0.6616765 0.1171959 0.740511 -0.66171 -0.117402 0.8747618 -0.4642799 -0.138694 0.8747618 -0.4642799 -0.138694 0.740511 -0.66171 -0.117402 0.6679962 -0.6616963 -0.3404981 0.7890929 -0.4642959 -0.4021959 0.7890929 -0.4642959 -0.4021959 0.6679962 -0.6616963 -0.3404981 0.530109 -0.661712 -0.530209 0.6261756 -0.4642818 -0.6263756 0 -0.9999999 0 0 -0.9999999 0 0 -0.9999999 0 0 -0.9999999 0 0 -0.9999999 0 0 -0.9999999 0 0 -0.9999999 0 0 -0.9999999 0 0 -0.9999999 0 0 -0.9999999 0 0 -0.9999999 0 0 -0.9999999 0 0 -0.9999999 0 0 -0.9999999 0 0 -0.9999999 0 0 -0.9999999 0 0 -0.9999999 0 0 -0.9999999 0 0 -0.9999999 0 0 -0.9999999 0 0 -0.9999999 0 0 -0.9999999 0 0 -0.9999999 0 0 -0.9999999 0 0 -0.9999999 0 0 -0.9999999 0 0 -0.9999999 0 0 -0.9999999 0 0 -0.9999999 0 0 -0.9999999 0 0 -0.9999999 0 0 -0.9999999 0 0 -0.9999999 0 0 -0.9999999 0 0 -0.9999999 0 0 -0.9999999 0 0 -0.9999999 0 0 -0.9999999 0 0 -0.9999999 0 0 -0.9999999 0 0 -0.9999999 0 0 -0.9999999 0 0 -0.9999999 0 0 -0.9999999 0 0 -0.9999999 0 0 -0.9999999 0 0 -0.9999999 0 0 -0.9999999 0 0 -0.9999999 0 0 -0.9999999 0 0 -0.9999999 0 0 -0.9999999 0 0 -0.9999999 0 0 -0.9999999 0 0 -0.9999999 0 0 -0.9999999 0 0 -0.9999999 0 0 -0.9999999 0 0 -0.9999999 0 0 -0.9999999 0 0 0.9999999 0 0 0.9999999 0 0 0.9999999 0 0 0.9999999 0 0 0.9999999 0 0 0.9999999 0 0 0.9999999 0 0 0.9999999 0 0 0.9999999 0 0 0.9999999 0 0 0.9999999 0 0 0.9999999 0 0 0.9999999 0 0 0.9999999 0 0 0.9999999 0 0 0.9999999 0 0 0.9999999 0 0 0.9999999 0 0 0.9999999 0 0 0.9999999 0 0 0.9999999 0 0 0.9999999 0 0 0.9999999 0 0 0.9999999 0 0 0.9999999 0 0 0.9999999 0 0 0.9999999 0 0 0.9999999 0 0 0.9999999 0 0 0.9999999 0 0 0.9999999 0 0 0.9999999 0 0 0.9999999 0 0 0.9999999 0 0 0.9999999 0 0 0.9999999 0 0 0.9999999 0 0 0.9999999 0 0 0.9999999 0 0 0.9999999 0 0 0.9999999 0 0 0.9999999 0 0 0.9999999 0 0 0.9999999 0 0 0.9999999 0 0 0.9999999 0 0 0.9999999 0 0 0.9999999 0 0 0.9999999 0 0 0.9999999 0 0 0.9999999 0 0 0.9999999 0 0 0.9999999 0 0 0.9999999 0 0 0.9999999 0 0 0.9999999 0 0 0.9999999 0 0 0.9999999 0 0 0.9999999 0 0 0.9999999 0 0.3209011 -0.7071022 -0.6301022 0.4999023 -0.7071034 -0.5001023 0.4999023 -0.7071034 -0.5001023 0.3209011 -0.7071022 -0.6301022 0.6300008 -0.7071018 -0.3211009 0.4999023 -0.7071034 -0.5001023 0.4999023 -0.7071034 -0.5001023 0.6300008 -0.7071018 -0.3211009 0.110502 -0.7071129 -0.6984129 0.3209011 -0.7071022 -0.6301022 0.3209011 -0.7071022 -0.6301022 0.110502 -0.7071129 -0.6984129 -0.1107 -0.7070968 -0.6983978 0.110502 -0.7071129 -0.6984129 0.110502 -0.7071129 -0.6984129 -0.1107 -0.7070968 -0.6983978 -0.3211009 -0.7071018 -0.6300008 -0.1107 -0.7070968 -0.6983978 -0.1107 -0.7070968 -0.6983978 -0.3211009 -0.7071018 -0.6300008 -0.5001023 -0.7071034 -0.4999023 -0.3211009 -0.7071018 -0.6300008 -0.3211009 -0.7071018 -0.6300008 -0.5001023 -0.7071034 -0.4999023 -0.6301022 -0.7071022 -0.3209011 -0.5001023 -0.7071034 -0.4999023 -0.5001023 -0.7071034 -0.4999023 -0.6301022 -0.7071022 -0.3209011 -0.6984129 -0.7071129 -0.110502 -0.6301022 -0.7071022 -0.3209011 -0.6301022 -0.7071022 -0.3209011 -0.6984129 -0.7071129 -0.110502 -0.6983978 -0.7070968 0.1107 -0.6984129 -0.7071129 -0.110502 -0.6984129 -0.7071129 -0.110502 -0.6983978 -0.7070968 0.1107 -0.6300008 -0.7071018 0.3211009 -0.6983978 -0.7070968 0.1107 -0.6983978 -0.7070968 0.1107 -0.6300008 -0.7071018 0.3211009 -0.5755109 -0.702713 0.418308 -0.6300008 -0.7071018 0.3211009 -0.6300008 -0.7071018 0.3211009 -0.5755109 -0.702713 0.418308 0.6301022 -0.7071022 0.3209011 0.5756257 -0.7027315 0.4181187 0.5756257 -0.7027315 0.4181187 0.6301022 -0.7071022 0.3209011 0.6984129 -0.7071129 0.110502 0.6301022 -0.7071022 0.3209011 0.6301022 -0.7071022 0.3209011 0.6984129 -0.7071129 0.110502 0.6983978 -0.7070968 -0.1107 0.6984129 -0.7071129 0.110502 0.6984129 -0.7071129 0.110502 0.6983978 -0.7070968 -0.1107 0.6300008 -0.7071018 -0.3211009 0.6983978 -0.7070968 -0.1107 0.6983978 -0.7070968 -0.1107 0.6300008 -0.7071018 -0.3211009 0.6300008 0.7071018 -0.3211009 0.4999023 0.7071034 -0.5001023 0.4999023 0.7071034 -0.5001023 0.6300008 0.7071018 -0.3211009 0.3209011 0.7071022 -0.6301022 0.4999023 0.7071034 -0.5001023 0.4999023 0.7071034 -0.5001023 0.3209011 0.7071022 -0.6301022 0.110502 0.7071129 -0.6984129 0.3209011 0.7071022 -0.6301022 0.3209011 0.7071022 -0.6301022 0.110502 0.7071129 -0.6984129 -0.1107 0.7070968 -0.6983978 0.110502 0.7071129 -0.6984129 0.110502 0.7071129 -0.6984129 -0.1107 0.7070968 -0.6983978 -0.3211009 0.7071018 -0.6300008 -0.1107 0.7070968 -0.6983978 -0.1107 0.7070968 -0.6983978 -0.3211009 0.7071018 -0.6300008 -0.5001023 0.7071034 -0.4999023 -0.3211009 0.7071018 -0.6300008 -0.3211009 0.7071018 -0.6300008 -0.5001023 0.7071034 -0.4999023 -0.6301022 0.7071022 -0.3209011 -0.5001023 0.7071034 -0.4999023 -0.5001023 0.7071034 -0.4999023 -0.6301022 0.7071022 -0.3209011 -0.6984129 0.7071129 -0.110502 -0.6301022 0.7071022 -0.3209011 -0.6301022 0.7071022 -0.3209011 -0.6984129 0.7071129 -0.110502 -0.6983978 0.7070968 0.1107 -0.6984129 0.7071129 -0.110502 -0.6984129 0.7071129 -0.110502 -0.6983978 0.7070968 0.1107 -0.6300008 0.7071018 0.3211009 -0.6983978 0.7070968 0.1107 -0.6983978 0.7070968 0.1107 -0.6300008 0.7071018 0.3211009 -0.5755109 0.702713 0.418308 -0.6300008 0.7071018 0.3211009 -0.6300008 0.7071018 0.3211009 -0.5755109 0.702713 0.418308 0.6301022 0.7071022 0.3209011 0.5756257 0.7027315 0.4181187 0.5756257 0.7027315 0.4181187 0.6301022 0.7071022 0.3209011 0.6984129 0.7071129 0.110502 0.6301022 0.7071022 0.3209011 0.6301022 0.7071022 0.3209011 0.6984129 0.7071129 0.110502 0.6983978 0.7070968 -0.1107 0.6984129 0.7071129 0.110502 0.6984129 0.7071129 0.110502 0.6983978 0.7070968 -0.1107 0.6300008 0.7071018 -0.3211009 0.6983978 0.7070968 -0.1107 0.6983978 0.7070968 -0.1107 0.6300008 0.7071018 -0.3211009 -0.7890929 0.4642959 0.4021959 -0.89094 0 0.454121 -0.8089219 0 0.587916 -0.7183632 0.4597761 0.5220731 -0.8747618 0.4642799 0.138694 -0.987663 0 0.156594 -0.89094 0 0.454121 -0.7890929 0.4642959 0.4021959 -0.8747981 0.4642991 -0.1384 -0.9877095 0 -0.1563011 -0.987663 0 0.156594 -0.8747618 0.4642799 0.138694 -0.7891942 0.4642961 -0.4019971 -0.8910623 0 -0.4538811 -0.9877095 0 -0.1563011 -0.8747981 0.4642991 -0.1384 -0.6263756 0.4642817 -0.6261756 -0.7072067 0 -0.7070067 -0.8910623 0 -0.4538811 -0.7891942 0.4642961 -0.4019971 -0.4021959 0.4642959 -0.7890929 -0.454121 0 -0.89094 -0.7072067 0 -0.7070067 -0.6263756 0.4642817 -0.6261756 -0.138694 0.4642799 -0.8747618 -0.156594 0 -0.987663 -0.454121 0 -0.89094 -0.4021959 0.4642959 -0.7890929 0.1384 0.4642991 -0.8747981 0.1563011 0 -0.9877095 -0.156594 0 -0.987663 -0.138694 0.4642799 -0.8747618 0.4019971 0.4642961 -0.7891942 0.4538811 0 -0.8910623 0.1563011 0 -0.9877095 0.1384 0.4642991 -0.8747981 0.6261756 0.4642818 -0.6263756 0.7070067 0 -0.7072067 0.4538811 0 -0.8910623 0.4019971 0.4642961 -0.7891942 0.7890929 0.4642959 -0.4021959 0.89094 0 -0.454121 0.7070067 0 -0.7072067 0.6261756 0.4642818 -0.6263756 0.8747618 0.4642799 -0.138694 0.987663 0 -0.156594 0.89094 0 -0.454121 0.7890929 0.4642959 -0.4021959 0.8747981 0.4642991 0.1384 0.9877095 0 0.1563011 0.987663 0 -0.156594 0.8747618 0.4642799 -0.138694 0.7891942 0.4642961 0.4019971 0.8910623 0 0.4538811 0.9877095 0 0.1563011 0.8747981 0.4642991 0.1384 0.7184864 0.4597912 0.5218902 0.8090861 0 0.5876901 0.8910623 0 0.4538811 0.7891942 0.4642961 0.4019971 -0.6679962 0.6616963 0.3404981 -0.7890929 0.4642959 0.4021959 -0.7183632 0.4597761 0.5220731 -0.6097811 0.6570792 0.4431861 -0.740511 0.66171 0.117402 -0.8747618 0.4642799 0.138694 -0.7890929 0.4642959 0.4021959 -0.6679962 0.6616963 0.3404981 -0.7405734 0.6616765 -0.1171959 -0.8747981 0.4642991 -0.1384 -0.8747618 0.4642799 0.138694 -0.740511 0.66171 0.117402 -0.668097 0.661697 -0.340299 -0.7891942 0.4642961 -0.4019971 -0.8747981 0.4642991 -0.1384 -0.7405734 0.6616765 -0.1171959 -0.530209 0.661712 -0.530109 -0.6263756 0.4642817 -0.6261756 -0.7891942 0.4642961 -0.4019971 -0.668097 0.661697 -0.340299 -0.3404981 0.6616963 -0.6679962 -0.4021959 0.4642959 -0.7890929 -0.6263756 0.4642817 -0.6261756 -0.530209 0.661712 -0.530109 -0.117402 0.66171 -0.740511 -0.138694 0.4642799 -0.8747618 -0.4021959 0.4642959 -0.7890929 -0.3404981 0.6616963 -0.6679962 0.1171959 0.6616766 -0.7405735 0.1384 0.4642991 -0.8747981 -0.138694 0.4642799 -0.8747618 -0.117402 0.66171 -0.740511 0.340299 0.661697 -0.668097 0.4019971 0.4642961 -0.7891942 0.1384 0.4642991 -0.8747981 0.1171959 0.6616766 -0.7405735 0.530109 0.661712 -0.530209 0.6261756 0.4642818 -0.6263756 0.4019971 0.4642961 -0.7891942 0.340299 0.661697 -0.668097 0.6679962 0.6616963 -0.3404981 0.7890929 0.4642959 -0.4021959 0.6261756 0.4642818 -0.6263756 0.530109 0.661712 -0.530209 0.740511 0.66171 -0.117402 0.8747618 0.4642799 -0.138694 0.7890929 0.4642959 -0.4021959 0.6679962 0.6616963 -0.3404981 0.7405734 0.6616765 0.1171959 0.8747981 0.4642991 0.1384 0.8747618 0.4642799 -0.138694 0.740511 0.66171 -0.117402 0.668097 0.661697 0.340299 0.7891942 0.4642961 0.4019971 0.8747981 0.4642991 0.1384 0.7405734 0.6616765 0.1171959 0.6098978 0.6570978 0.4429979 0.7184864 0.4597912 0.5218902 0.7891942 0.4642961 0.4019971 0.668097 0.661697 0.340299 -0.89094 0 0.454121 -0.7890929 -0.4642959 0.4021959 -0.7183632 -0.4597761 0.5220731 -0.8089219 0 0.587916 -0.987663 0 0.156594 -0.8747618 -0.4642799 0.138694 -0.7890929 -0.4642959 0.4021959 -0.89094 0 0.454121 -0.9877095 0 -0.1563011 -0.8747981 -0.4642991 -0.1384 -0.8747618 -0.4642799 0.138694 -0.987663 0 0.156594 -0.8910623 0 -0.4538811 -0.7891942 -0.4642961 -0.4019971 -0.8747981 -0.4642991 -0.1384 -0.9877095 0 -0.1563011 -0.7072067 0 -0.7070067 -0.6263756 -0.4642817 -0.6261756 -0.7891942 -0.4642961 -0.4019971 -0.8910623 0 -0.4538811 -0.454121 0 -0.89094 -0.4021959 -0.4642959 -0.7890929 -0.6263756 -0.4642817 -0.6261756 -0.7072067 0 -0.7070067 -0.156594 0 -0.987663 -0.138694 -0.4642799 -0.8747618 -0.4021959 -0.4642959 -0.7890929 -0.454121 0 -0.89094 0.1563011 0 -0.9877095 0.1384 -0.4642991 -0.8747981 -0.138694 -0.4642799 -0.8747618 -0.156594 0 -0.987663 0.4538811 0 -0.8910623 0.4019971 -0.4642961 -0.7891942 0.1384 -0.4642991 -0.8747981 0.1563011 0 -0.9877095 0.7070067 0 -0.7072067 0.6261756 -0.4642818 -0.6263756 0.4019971 -0.4642961 -0.7891942 0.4538811 0 -0.8910623 0.89094 0 -0.454121 0.7890929 -0.4642959 -0.4021959 0.6261756 -0.4642818 -0.6263756 0.7070067 0 -0.7072067 0.987663 0 -0.156594 0.8747618 -0.4642799 -0.138694 0.7890929 -0.4642959 -0.4021959 0.89094 0 -0.454121 0.9877095 0 0.1563011 0.8747981 -0.4642991 0.1384 0.8747618 -0.4642799 -0.138694 0.987663 0 -0.156594 0.8910623 0 0.4538811 0.7891942 -0.4642961 0.4019971 0.8747981 -0.4642991 0.1384 0.9877095 0 0.1563011 0.8090861 0 0.5876901 0.7184864 -0.4597912 0.5218902 0.7891942 -0.4642961 0.4019971 0.8910623 0 0.4538811 3e-4 -0.9999998 -4e-4 3e-4 -0.9999998 -4e-4 3e-4 -0.9999998 -4e-4 3e-4 -0.9999998 -4e-4 0 -0.9999998 -5e-4 0 -0.9999998 -5e-4 0 -0.9999998 -5e-4 0 -0.9999998 -5e-4 0 -0.9999998 -5e-4 0 -0.9999998 -5e-4 0 -0.9999998 -5e-4 0 -0.9999998 -5e-4 0 -0.9999998 -5e-4 0 -0.9999998 -5e-4 0 -0.9999998 -5e-4 0 -0.9999998 -5e-4 -3e-4 -0.9999998 -4e-4 -3e-4 -0.9999998 -4e-4 -3e-4 -0.9999998 -4e-4 -3e-4 -0.9999998 -4e-4 -4e-4 -0.9999998 -3e-4 -4e-4 -0.9999998 -3e-4 -4e-4 -0.9999998 -3e-4 -4e-4 -0.9999998 -3e-4 -5e-4 -0.9999998 0 -5e-4 -0.9999998 0 -5e-4 -0.9999998 0 -5e-4 -0.9999998 0 -5e-4 -0.9999998 0 -5e-4 -0.9999998 0 -5e-4 -0.9999998 0 -5e-4 -0.9999998 0 -5e-4 -0.9999998 0 -5e-4 -0.9999998 0 -5e-4 -0.9999998 0 -5e-4 -0.9999998 0 -4e-4 -0.9999998 3e-4 -4e-4 -0.9999998 3e-4 -4e-4 -0.9999998 3e-4 -4e-4 -0.9999998 3e-4 4e-4 -0.9999998 3e-4 4e-4 -0.9999998 3e-4 4e-4 -0.9999998 3e-4 4e-4 -0.9999998 3e-4 5e-4 -0.9999998 0 5e-4 -0.9999998 0 5e-4 -0.9999998 0 5e-4 -0.9999998 0 5e-4 -0.9999998 0 5e-4 -0.9999998 0 5e-4 -0.9999998 0 5e-4 -0.9999998 0 5e-4 -0.9999998 0 5e-4 -0.9999998 0 5e-4 -0.9999998 0 5e-4 -0.9999998 0 4e-4 -0.9999998 -3e-4 4e-4 -0.9999998 -3e-4 4e-4 -0.9999998 -3e-4 4e-4 -0.9999998 -3e-4 3e-4 0.9999998 -4e-4 3e-4 0.9999998 -4e-4 3e-4 0.9999998 -4e-4 3e-4 0.9999998 -4e-4 0 0.9999998 -5e-4 0 0.9999998 -5e-4 0 0.9999998 -5e-4 0 0.9999998 -5e-4 0 0.9999998 -5e-4 0 0.9999998 -5e-4 0 0.9999998 -5e-4 0 0.9999998 -5e-4 0 0.9999998 -5e-4 0 0.9999998 -5e-4 0 0.9999998 -5e-4 0 0.9999998 -5e-4 -3e-4 0.9999998 -4e-4 -3e-4 0.9999998 -4e-4 -3e-4 0.9999998 -4e-4 -3e-4 0.9999998 -4e-4 -4e-4 0.9999998 -3e-4 -4e-4 0.9999998 -3e-4 -4e-4 0.9999998 -3e-4 -4e-4 0.9999998 -3e-4 -5e-4 0.9999998 0 -5e-4 0.9999998 0 -5e-4 0.9999998 0 -5e-4 0.9999998 0 -5e-4 0.9999998 0 -5e-4 0.9999998 0 -5e-4 0.9999998 0 -5e-4 0.9999998 0 -5e-4 0.9999998 0 -5e-4 0.9999998 0 -5e-4 0.9999998 0 -5e-4 0.9999998 0 -4e-4 0.9999998 3e-4 -4e-4 0.9999998 3e-4 -4e-4 0.9999998 3e-4 -4e-4 0.9999998 3e-4 4e-4 0.9999998 3e-4 4e-4 0.9999998 3e-4 4e-4 0.9999998 3e-4 4e-4 0.9999998 3e-4 5e-4 0.9999998 0 5e-4 0.9999998 0 5e-4 0.9999998 0 5e-4 0.9999998 0 5e-4 0.9999998 0 5e-4 0.9999998 0 5e-4 0.9999998 0 5e-4 0.9999998 0 5e-4 0.9999998 0 5e-4 0.9999998 0 5e-4 0.9999998 0 5e-4 0.9999998 0 4e-4 0.9999998 -3e-4 4e-4 0.9999998 -3e-4 4e-4 0.9999998 -3e-4 4e-4 0.9999998 -3e-4 0.6189981 -0.06000001 0.7830972 0.6189981 -0.06000001 0.7830972 0.650209 -0.073301 0.756211 0.6708292 -0.06180301 0.7390321 -0.6148964 -0.06290004 0.7860955 -0.6527059 -0.08250099 0.7531059 -0.6527059 -0.08250099 0.7531059 -0.6148964 -0.06290004 0.7860955 0.650209 -0.073301 0.756211 0.684687 -0.051899 0.726987 0.6708292 -0.06180301 0.7390321 -0.6905977 -0.05429998 0.7211977 -0.6905977 -0.05429998 0.7211977 -0.6527059 -0.08250099 0.7531059 -0.6527059 -0.08250099 0.7531059 0.684687 0.051899 0.726987 0.650209 0.073301 0.756211 0.6707796 0.06179796 0.7390775 -0.6905977 0.05429998 0.7211977 -0.6527059 0.08250099 0.7531059 -0.6527059 0.08250099 0.7531059 -0.6905977 0.05429998 0.7211977 -0.5951888 0 0.8035858 -0.5951888 0 0.8035858 -0.6148964 0.06290004 0.7860955 -0.6148964 0.06290004 0.7860955 0.6189981 0.06000001 0.7830972 0.6189981 0.06000001 0.7830972 0.595414 0 0.803419 0.595414 0 0.803419 0.6189981 0.06000001 0.7830972 0.6707796 0.06179796 0.7390775 0.650209 0.073301 0.756211 0.6189981 0.06000001 0.7830972 -0.6148964 0.06290004 0.7860955 -0.6148964 0.06290004 0.7860955 -0.6527059 0.08250099 0.7531059 -0.6527059 0.08250099 0.7531059 0.595414 0 0.803419 0.595414 0 0.803419 0.6189981 -0.06000001 0.7830972 0.6189981 -0.06000001 0.7830972 -0.6148964 -0.06290004 0.7860955 -0.6148964 -0.06290004 0.7860955 -0.5951888 0 0.8035858 -0.5951888 0 0.8035858 0.6708292 -0.06180301 0.7390321 0.684687 -0.051899 0.726987 0.7102702 -0.03859801 0.7028702 0.7102702 -0.03859801 0.7028702 -0.58769 5e-4 0.809086 -0.58769 5e-4 0.809086 -0.4538811 3e-4 0.8910623 -0.4538811 3e-4 0.8910623 -0.4538811 3e-4 0.8910623 -0.4538811 3e-4 0.8910623 -0.1563011 0 0.9877095 -0.1563011 0 0.9877095 -0.1563011 0 0.9877095 -0.1563011 0 0.9877095 0.156594 0 0.987663 0.156594 0 0.987663 0.156594 0 0.987663 0.156594 0 0.987663 0.4541209 3e-4 0.8909398 0.4541209 3e-4 0.8909398 -0.6905977 -0.05429998 0.7211977 -0.7095657 -0.03079899 0.7039657 -0.7095657 -0.03079899 0.7039657 -0.6905977 -0.05429998 0.7211977 0.4541209 3e-4 0.8909398 0.4541209 3e-4 0.8909398 0.5879158 6e-4 0.8089218 0.5879158 6e-4 0.8089218 0.6707796 0.06179796 0.7390775 0.7102669 0.03869799 0.7028679 0.7102669 0.03869799 0.7028679 0.684687 0.051899 0.726987 -0.4538811 -1e-4 0.8910623 -0.4538811 -1e-4 0.8910623 -0.5876901 -1e-4 0.8090861 -0.5876901 -1e-4 0.8090861 -0.1563011 0 0.9877095 -0.1563011 0 0.9877095 -0.4538811 -1e-4 0.8910623 -0.4538811 -1e-4 0.8910623 0.156594 0 0.987663 0.156594 0 0.987663 -0.1563011 0 0.9877095 -0.1563011 0 0.9877095 0.454121 0 0.89094 0.454121 0 0.89094 0.156594 0 0.987663 0.156594 0 0.987663 -0.6905977 0.05429998 0.7211977 -0.6905977 0.05429998 0.7211977 -0.7095137 0.03090099 0.7040137 -0.7095137 0.03090099 0.7040137 0.587916 0 0.8089219 0.587916 0 0.8089219 0.454121 0 0.89094 0.454121 0 0.89094 0.076804 -3e-4 0.9970461 0.07629899 0 0.9970849 0.7158026 4e-4 0.6983025 -0.7163949 0 0.6976949 -0.09030103 -5e-4 0.9959143 -0.7160456 -0.003499998 0.6980447 -0.7160456 -0.003499998 0.6980447 -0.7163949 0 0.6976949 -0.7160456 -0.003499998 0.6980447 -0.7160456 -0.003499998 0.6980447 0.07629899 0 0.9970849 0.076804 -3e-4 0.9970461 -0.4539209 0 0.8910418 -0.4538811 0 0.8910623 -0.4538811 0 0.8910623 -0.4539209 0 0.8910418 -0.1563011 0 0.9877095 -0.1563011 0 0.9877095 -0.1563011 0 0.9877095 -0.1563011 0 0.9877095 0.156594 0 0.987663 0.156594 0 0.987663 0.454121 0 0.89094 0.156594 0 0.987663 0.156594 0 0.987663 0.454121 0 0.89094 -0.08759601 0 0.9961561 0.454121 0 0.89094 0.454121 0 0.89094 -0.09030103 -5e-4 0.9959143 0.076804 -3e-4 0.9970461 0.7158026 4e-4 0.6983025 0.7164932 0.001 0.6975932 0.076804 -3e-4 0.9970461 0.7164932 0.001 0.6975932 0.7162962 4e-4 0.6977962 0.7152089 -0.002 0.6989079 0.076804 -3e-4 0.9970461 0.7162962 4e-4 0.6977962 0.7152089 -0.002 0.6989079 -0.08759601 0 0.9961561 -0.09030103 -5e-4 0.9959143 -0.7160985 8.99999e-4 0.6979985 -0.7160985 8.99999e-4 0.6979985 -0.09030103 -5e-4 0.9959143 -0.7187089 0.0017 0.6953089 -0.719986 0.0019 0.6939859 -0.7187089 0.0017 0.6953089 -0.09030103 -5e-4 0.9959143 -0.7163949 0 0.6976949</float_array>
          <technique_common>
            <accessor source="#polySurface9Shape-normals-array" count="1059" stride="3">
              <param name="X" type="float"/>
              <param name="Y" type="float"/>
              <param name="Z" type="float"/>
            </accessor>
          </technique_common>
        </source>
        <source id="polySurface9Shape-map1" name="polySurface9Shape-map1">
          <float_array id="polySurface9Shape-map1-array" count="744">0.2378 0.9746 0.2146 0.9148 0.276 0.9059 0.296 0.9548 0.2022 0.9773 0.1641 0.976 0.1362 0.9094 0.1025 0.9497 0.2067 0.6513 0.0812 0.5462 0.1524 0.5162 0.2376 0.5122 0.3359 0.6486 0.32 0.5341 0.3896 0.5771 0.2113 0.7735 0.2082 0.7446 0.2594 0.7493 0.2483 0.7807 0.1583 0.8596 0.2147 0.8641 0.2545 0.8598 0.1678 0.8143 0.2119 0.8151 0.2466 0.8198 0.1743 0.7779 0.1703 0.7482 0.0886 0.6509 0.0217 0.595 0.2946 0.6984 0.2066 0.7005 0.1384 0.7004 0.2414 0.9873 0.2385 0.9762 0.2963 0.9561 0.2966 0.9652 0.2878 0.9002 0.3083 0.9507 0.2977 0.9548 0.278 0.9057 0.2021 0.9935 0.2021 0.9795 0.1581 0.9891 0.0964 0.9619 0.1014 0.951 0.1628 0.9776 0.1247 0.9023 0.1343 0.9089 0.1007 0.949 0.0928 0.9402 0.0726 0.5329 0.0796 0.5447 0.0198 0.5937 0.0108 0.5826 0.0783 0.6617 0.0111 0.6069 0.0202 0.5962 0.0862 0.6515 0.1482 0.4998 0.1516 0.514 0.2391 0.4954 0.2379 0.51 0.3264 0.5191 0.3213 0.5323 0.3971 0.5633 0.3906 0.5755 0.3509 0.6573 0.3386 0.649 0.3916 0.578 0.4033 0.5867 0.1584 0.7541 0.1684 0.7487 0.1725 0.778 0.1615 0.7775 0.2625 0.7837 0.2503 0.7812 0.2616 0.7497 0.2728 0.7551 0.1456 0.8548 0.1564 0.8593 0.2667 0.8566 0.2565 0.8597 0.1543 0.811 0.1659 0.8141 0.2484 0.82 0.2587 0.8196 0.3097 0.7055 0.2972 0.6987 0.1362 0.7009 0.1271 0.7098 0.2981 0.9652 0.0948 0.9611 0.0095 0.6055 0.3991 0.5645 0.6677 0.0884 0.6677 0.1068 0.5947 0.1068 0.5947 0.0884 0.543 0.1068 0.543 0.0884 0.4778 0.1068 0.4778 0.0884 0.4055 0.1068 0.4055 0.0884 0.341 0.1068 0.341 0.0884 0.268 0.1068 0.268 0.0884 0.2163 0.1068 0.2163 0.0884 0.151 0.1068 0.151 0.0884 0.0788 0.1068 0.0788 0.0884 0.0065 0.1068 0.0065 0.0884 0.9944 0.0884 0.9944 0.1068 0.9214 0.1068 0.9214 0.0884 0.8697 0.1068 0.8697 0.0884 0.8045 0.1068 0.8045 0.0884 0.7322 0.1068 0.7322 0.0884 0.6456 0.2819 0.6774 0.2361 0.8117 0.3589 0.6301 0.336 0.6329 0.3928 0.6537 0.4462 0.6903 0.4906 0.7386 0.5214 0.7935 0.5357 0.8491 0.5323 0.9001 0.5122 0.9417 0.4776 0.9702 0.4323 0.9832 0.3805 0.9799 0.327 0.9606 0.2765 0.927 0.2338 0.882 0.2026 0.8295 0.186 0.7744 0.1861 0.7219 0.2032 0.4648 0.8911 0.4345 0.8454 0.5918 0.7699 0.4193 0.7925 0.4209 0.7373 0.439 0.6851 0.4721 0.6408 0.5171 0.6088 0.5698 0.5924 0.6252 0.5933 0.6777 0.6117 0.7219 0.6458 0.7535 0.6924 0.769 0.7468 0.767 0.8034 0.7476 0.8565 0.7131 0.9007 0.6669 0.9318 0.6137 0.9468 0.5589 0.9444 0.5076 0.9252 0.6677 0.111 0.5947 0.111 0.7322 0.111 0.543 0.111 0.4778 0.111 0.4055 0.111 0.341 0.111 0.268 0.111 0.2163 0.111 0.151 0.111 0.0788 0.111 0.0065 0.111 0.9944 0.111 0.9214 0.111 0.8697 0.111 0.8045 0.111 0.7322 0.0314 0.6677 0.0314 0.6677 0.0272 0.7322 0.0272 0.5947 0.0272 0.5947 0.0314 0.543 0.0272 0.543 0.0314 0.4778 0.0272 0.4778 0.0314 0.4055 0.0272 0.4055 0.0314 0.341 0.0272 0.341 0.0314 0.268 0.0272 0.268 0.0314 0.2163 0.0272 0.2163 0.0314 0.151 0.0272 0.151 0.0314 0.0788 0.0272 0.0788 0.0314 0.0065 0.0272 0.0065 0.0314 0.9214 0.0272 0.9944 0.0272 0.9944 0.0314 0.9214 0.0314 0.8697 0.0272 0.8697 0.0314 0.8045 0.0272 0.8045 0.0314 0.0788 0.0497 0.0788 0.0691 0.0065 0.0691 0.0065 0.0497 0.151 0.0497 0.151 0.0691 0.2163 0.0497 0.2163 0.0691 0.268 0.0497 0.268 0.0691 0.341 0.0497 0.341 0.0691 0.4055 0.0497 0.4055 0.0691 0.4778 0.0497 0.4778 0.0691 0.543 0.0497 0.543 0.0691 0.5947 0.0497 0.5947 0.0691 0.6677 0.0497 0.6677 0.0691 0.7322 0.0497 0.7322 0.0691 0.8045 0.0497 0.8045 0.0691 0.8697 0.0497 0.8697 0.0691 0.9214 0.0497 0.9214 0.0691 0.9944 0.0497 0.9944 0.0691 0.6104 0.2656 0.6492 0.2104 0.5914 0.3311 0.5947 0.4 0.62 0.4649 0.6645 0.5186 0.7232 0.5557 0.7896 0.5726 0.8569 0.5681 0.9182 0.5435 0.9679 0.5016 0.8961 0.1711 0.95 0.2088 0.8332 0.1509 0.7668 0.1506 0.7033 0.1709 0.4391 0.9157 0.4026 0.8607 0.3844 0.797 0.3862 0.7307 0.4079 0.6678 0.4476 0.6144 0.5018 0.5757 0.5653 0.5557 0.6321 0.5566 0.6955 0.5787 0.7491 0.6199 0.7382 0.9278 0.6824 0.9652 0.6182 0.9831 0.5522 0.9801 0.4905 0.9568 0.345 0.2133 0.3338 0.2074 0.377 0.156 0.3896 0.1602 0.0882 0.1719 0.0399 0.2135 0.0309 0.2049 0.0823 0.1618 0.3881 0.1442 0.0304 0.2202 0.0192 0.216 0.3881 0.3787 0.377 0.367 0.3896 0.3628 0.2424 0.2202 0.233 0.2135 0.2419 0.2049 0.2537 0.216 0.1364 0.1605 0.1364 0.1491 0.1905 0.1618 0.1846 0.1719 0.345 0.3097 0.3338 0.3156 0.3211 0.2615 0.3338 0.2615 0.483 0.1442 0.483 0.1574 0.2685 0.4095 0.2685 0.4227 0.1334 0.4227 0.1334 0.4095 0.0262 0.4227 0.0262 0.4095 0.4591 0.4334 0.4591 0.4466 0.324 0.4466 0.324 0.4334 0.1743 0.4466 0.1743 0.4334 0.0323 0.3109 0.0191 0.3109 0.0246 0.4466 0.0246 0.4334 0.483 0.3656 0.483 0.3788 0.1334 0.4032 0.1334 0.39 0.2685 0.39 0.2685 0.4032 0.0262 0.4032 0.0262 0.39 0.324 0.466 0.324 0.4529 0.4591 0.4529 0.4591 0.466 0.1743 0.466 0.1743 0.4529 0.2537 0.3109 0.2405 0.3109 0.0246 0.466 0.0246 0.4529 0.8984 0.6654 0.8984 0.7586 0.8566 0.7574 0.9672 0.7129 0.8999 0.6663 0.9405 0.6654 0.9435 0.6697 0.9621 0.6913 0.9903 0.8795 0.8971 0.8796 0.8972 0.8191 0.9903 0.8191 0.8972 0.7711 0.9903 0.7711 0.8954 0.9656 0.8022 0.9656 0.8022 0.9051 0.8954 0.9051 0.8954 0.8381 0.8022 0.8381 0.8954 0.7711 0.8022 0.7711 0.8366 0.7336 0.8316 0.712 0.8566 0.6667 0.8366 0.6905 0.8999 0.7595 0.9405 0.7604 0.9621 0.7345 0.9435 0.7561</float_array>
          <technique_common>
            <accessor source="#polySurface9Shape-map1-array" count="372" stride="2">
              <param name="S" type="float"/>
              <param name="T" type="float"/>
            </accessor>
          </technique_common>
        </source>
        <vertices id="polySurface9Shape-vertices" name="polySurface9Shape-vertices">
          <input semantic="POSITION" source="#polySurface9Shape-positions"/>
        </vertices>
        <polylist material="lambert2SG" count="279">
          <input semantic="VERTEX" source="#polySurface9Shape-vertices" offset="0"/>
          <input semantic="NORMAL" source="#polySurface9Shape-normals" offset="1"/>
          <input semantic="TEXCOORD" source="#polySurface9Shape-map1" offset="2" set="0"/>
          <vcount>4 3 4 3 3 4 4 4 4 4 4 4 4 4 4 3 3 4 4 4 4 4 4 4 4 4 4 4 4 4 4 4 4 4 4 4 4 4 4 4 4 4 4 4 4 4 4 4 4 4 4 4 4 4 4 4 4 4 4 4 4 4 4 4 4 4 4 4 4 4 4 4 4 4 4 3 3 3 3 4 4 4 4 4 4 4 4 4 4 4 4 4 4 4 3 3 3 3 3 3 3 3 3 3 3 3 3 3 3 3 3 3 3 3 3 3 3 3 3 3 3 3 3 3 3 3 3 3 3 3 3 3 3 3 4 4 4 4 4 4 4 4 4 4 4 4 4 4 4 4 4 4 4 4 4 4 4 4 4 4 4 4 4 4 4 4 4 4 4 4 4 4 4 4 4 4 4 4 4 4 4 4 4 4 4 4 4 4 4 4 4 4 4 4 4 4 4 4 4 4 4 4 4 4 4 4 4 4 4 4 4 4 4 4 4 4 4 4 4 4 4 4 4 4 4 4 4 4 4 4 4 4 4 4 4 4 4 4 4 4 4 3 4 3 4 4 4 4 4 4 4 4 4 4 4 4 4 4 4 4 4 4 4 4 4 3 4 3 4 4 4 4 4 3 3 4 3 4 3</vcount>
          <p>0 0 0 1 1 1 2 2 2 3 3 3 4 4 4 5 5 5 1 6 1 6 7 6 1 8 1 5 9 5 7 10 7 8 11 8 9 12 9 10 13 10 8 14 8 10 15 10 11 16 11 12 17 12 8 18 8 13 19 13 14 20 14 15 21 15 16 22 16 17 23 17 18 24 18 19 25 19 20 26 20 1 27 1 6 28 6 1 29 1 20 30 20 21 31 21 2 32 2 22 33 22 23 34 23 20 35 20 19 36 19 20 37 20 23 38 23 24 39 24 21 40 21 25 41 25 15 42 15 23 43 23 22 44 22 23 45 23 15 46 15 18 47 18 24 48 24 26 49 26 16 50 16 15 51 15 25 52 25 9 53 9 8 54 8 27 55 27 28 56 28 8 57 8 11 58 11 13 59 13 0 60 0 4 61 4 1 62 1 8 63 8 12 64 12 29 65 29 30 66 30 8 67 8 30 68 30 31 69 31 27 70 27 30 71 30 29 72 29 17 73 17 16 74 16 30 75 30 16 76 16 26 77 26 31 78 31 32 79 32 33 80 33 34 81 34 35 82 35 36 83 36 37 84 37 38 85 38 39 86 39 40 87 40 41 88 41 33 89 33 32 90 32 42 91 42 43 92 43 44 93 44 45 94 45 46 95 46 47 96 47 48 97 48 49 98 49 50 99 50 51 100 51 52 101 52 53 102 53 54 103 54 55 104 55 56 105 56 57 106 57 58 107 58 59 108 59 51 109 51 50 110 50 60 111 60 61 112 61 59 113 59 58 114 58 62 115 62 63 116 63 61 117 61 60 118 60 62 119 62 64 120 64 65 121 65 63 122 63 66 123 66 67 124 67 68 125 68 69 126 69 70 127 70 71 128 71 72 129 72 73 130 73 74 131 74 75 132 75 76 133 76 77 134 77 78 135 78 79 136 79 47 137 47 46 138 46 80 139 80 36 140 36 39 141 39 81 142 81 82 143 82 83 144 83 79 145 79 78 146 78 80 147 80 81 148 81 84 149 84 85 150 85 73 151 73 72 152 72 83 153 83 82 154 82 85 155 85 84 156 84 75 157 75 74 158 74 42 159 42 45 160 45 41 161 41 40 162 40 86 163 86 87 164 87 67 165 67 66 166 66 54 167 54 57 168 57 88 169 88 89 170 89 77 171 77 76 172 76 87 173 87 86 174 86 89 175 89 88 176 88 71 177 71 70 178 70 35 179 35 34 180 34 38 181 38 37 182 90 33 183 33 0 184 0 3 185 3 34 186 34 39 187 39 38 188 38 3 189 3 2 190 2 41 191 41 4 192 4 0 193 0 33 194 33 81 195 81 39 196 39 2 197 2 21 198 21 5 199 5 4 200 4 41 201 41 45 202 45 7 203 7 5 204 5 45 205 45 44 206 44 49 207 91 48 208 48 44 209 44 43 210 43 47 211 47 6 212 6 7 213 7 48 214 48 79 215 79 19 216 19 6 217 6 47 218 47 53 219 92 52 220 52 56 221 56 55 222 55 51 223 51 9 224 9 28 225 28 52 226 52 57 227 57 56 228 56 28 229 28 27 230 27 59 231 59 10 232 10 9 233 9 51 234 51 88 235 88 57 236 57 27 237 27 31 238 31 11 239 11 10 240 10 59 241 59 61 242 61 13 243 13 11 244 11 61 245 61 63 246 63 14 247 14 13 248 13 63 249 63 65 250 65 69 251 93 68 252 68 65 253 65 64 254 64 67 255 67 12 256 12 14 257 14 68 258 68 87 259 87 29 260 29 12 261 12 67 262 67 31 263 31 26 264 26 71 265 71 88 266 88 72 267 72 71 268 71 26 269 26 25 270 25 22 271 22 83 272 83 72 273 72 25 274 25 75 275 75 18 276 18 17 277 17 76 278 76 29 279 29 87 280 87 76 281 76 17 282 17 24 283 24 18 284 18 75 285 75 84 286 84 83 287 83 22 288 22 19 289 19 79 290 79 84 291 84 81 292 81 21 293 21 24 294 24 38 295 38 34 296 34 3 297 3 44 298 44 48 299 48 7 300 7 56 301 56 52 302 52 28 303 28 65 304 65 68 305 68 14 306 14 90 307 94 91 308 95 92 309 96 93 310 97 93 311 97 92 312 96 94 313 98 95 314 99 95 315 99 94 316 98 96 317 100 97 318 101 97 319 101 96 320 100 98 321 102 99 322 103 99 323 103 98 324 102 100 325 104 101 326 105 101 327 105 100 328 104 102 329 106 103 330 107 103 331 107 102 332 106 104 333 108 105 334 109 105 335 109 104 336 108 106 337 110 107 338 111 107 339 111 106 340 110 108 341 112 109 342 113 109 343 113 108 344 112 110 345 114 111 346 115 112 347 116 113 348 117 114 349 118 115 350 119 115 351 119 114 352 118 116 353 120 117 354 121 117 355 121 116 356 120 118 357 122 119 358 123 119 359 123 118 360 122 120 361 124 121 362 125 121 363 125 120 364 124 91 365 95 90 366 94 122 367 126 123 368 127 124 369 128 125 370 129 122 371 126 124 372 128 126 373 130 125 374 129 124 375 128 127 376 131 126 377 130 124 378 128 128 379 132 127 380 131 124 381 128 129 382 133 128 383 132 124 384 128 130 385 134 129 386 133 124 387 128 131 388 135 130 389 134 124 390 128 132 391 136 131 392 135 124 393 128 133 394 137 132 395 136 124 396 128 134 397 138 133 398 137 124 399 128 135 400 139 134 401 138 124 402 128 136 403 140 135 404 139 124 405 128 137 406 141 136 407 140 124 408 128 138 409 142 137 410 141 124 411 128 139 412 143 138 413 142 124 414 128 140 415 144 139 416 143 124 417 128 141 418 145 140 419 144 124 420 128 142 421 146 141 422 145 124 423 128 123 424 127 142 425 146 124 426 128 143 427 147 144 428 148 145 429 149 144 430 148 146 431 150 145 432 149 146 433 150 147 434 151 145 435 149 147 436 151 148 437 152 145 438 149 148 439 152 149 440 153 145 441 149 149 442 153 150 443 154 145 444 149 150 445 154 151 446 155 145 447 149 151 448 155 152 449 156 145 450 149 152 451 156 153 452 157 145 453 149 153 454 157 154 455 158 145 456 149 154 457 158 155 458 159 145 459 149 155 460 159 156 461 160 145 462 149 156 463 160 157 464 161 145 465 149 157 466 161 158 467 162 145 468 149 158 469 162 159 470 163 145 471 149 159 472 163 160 473 164 145 474 149 160 475 164 161 476 165 145 477 149 161 478 165 162 479 166 145 480 149 162 481 166 163 482 167 145 483 149 163 484 167 143 485 147 145 486 149 92 487 96 91 488 95 164 489 168 165 490 169 166 491 170 164 492 168 91 493 95 120 494 124 94 495 98 92 496 96 165 497 169 167 498 171 96 499 100 94 500 98 167 501 171 168 502 172 98 503 102 96 504 100 168 505 172 169 506 173 100 507 104 98 508 102 169 509 173 170 510 174 102 511 106 100 512 104 170 513 174 171 514 175 104 515 108 102 516 106 171 517 175 172 518 176 106 519 110 104 520 108 172 521 176 173 522 177 108 523 112 106 524 110 173 525 177 174 526 178 110 527 114 108 528 112 174 529 178 175 530 179 114 531 118 113 532 117 176 533 180 177 534 181 116 535 120 114 536 118 177 537 181 178 538 182 118 539 122 116 540 120 178 541 182 179 542 183 120 543 124 118 544 122 179 545 183 166 546 170 180 547 184 181 548 185 182 549 186 183 550 187 184 551 188 182 552 186 181 553 185 185 554 189 186 555 190 184 556 188 185 557 189 187 558 191 188 559 192 186 560 190 187 561 191 189 562 193 190 563 194 188 564 192 189 565 193 191 566 195 192 567 196 190 568 194 191 569 195 193 570 197 194 571 198 192 572 196 193 573 197 195 574 199 196 575 200 194 576 198 195 577 199 197 578 201 198 579 202 196 580 200 197 581 201 199 582 203 200 583 204 198 584 202 199 585 203 201 586 205 202 587 206 200 588 204 201 589 205 203 590 207 204 591 208 205 592 209 206 593 210 207 594 211 208 595 212 204 596 208 207 597 211 209 598 213 210 599 214 208 600 212 209 601 213 211 602 215 183 603 187 210 604 214 211 605 215 180 606 184 212 607 216 213 608 217 214 609 218 215 610 219 216 611 220 217 612 221 213 613 217 212 614 216 218 615 222 219 616 223 217 617 221 216 618 220 220 619 224 221 620 225 219 621 223 218 622 222 222 623 226 223 624 227 221 625 225 220 626 224 224 627 228 225 628 229 223 629 227 222 630 226 226 631 230 227 632 231 225 633 229 224 634 228 228 635 232 229 636 233 227 637 231 226 638 230 230 639 234 231 640 235 229 641 233 228 642 232 232 643 236 233 644 237 231 645 235 230 646 234 234 647 238 235 648 239 233 649 237 232 650 236 236 651 240 237 652 241 235 653 239 234 654 238 238 655 242 239 656 243 237 657 241 236 658 240 240 659 244 241 660 245 239 661 243 238 662 242 242 663 246 243 664 247 241 665 245 240 666 244 201 667 205 212 668 216 215 669 219 203 670 207 199 671 203 216 672 220 212 673 216 201 674 205 197 675 201 218 676 222 216 677 220 199 678 203 195 679 199 220 680 224 218 681 222 197 682 201 193 683 197 222 684 226 220 685 224 195 686 199 191 687 195 224 688 228 222 689 226 193 690 197 189 691 193 226 692 230 224 693 228 191 694 195 187 695 191 228 696 232 226 697 230 189 698 193 185 699 189 230 700 234 228 701 232 187 702 191 181 703 185 232 704 236 230 705 234 185 706 189 180 707 184 234 708 238 232 709 236 181 710 185 211 711 215 236 712 240 234 713 238 180 714 184 209 715 213 238 716 242 236 717 240 211 718 215 207 719 211 240 720 244 238 721 242 209 722 213 206 723 210 242 724 246 240 725 244 207 726 211 213 727 217 109 728 113 111 729 115 214 730 218 217 731 221 107 732 111 109 733 113 213 734 217 219 735 223 105 736 109 107 737 111 217 738 221 221 739 225 103 740 107 105 741 109 219 742 223 223 743 227 101 744 105 103 745 107 221 746 225 225 747 229 99 748 103 101 749 105 223 750 227 227 751 231 97 752 101 99 753 103 225 754 229 229 755 233 95 756 99 97 757 101 227 758 231 231 759 235 93 760 97 95 761 99 229 762 233 233 763 237 90 764 94 93 765 97 231 766 235 235 767 239 121 768 125 90 769 94 233 770 237 237 771 241 119 772 123 121 773 125 235 774 239 239 775 243 117 776 121 119 777 123 237 778 241 241 779 245 115 780 119 117 781 121 239 782 243 243 783 247 112 784 116 115 785 119 241 786 245 122 787 126 165 788 248 164 789 249 123 790 127 125 791 129 167 792 250 165 793 248 122 794 126 126 795 130 168 796 251 167 797 250 125 798 129 127 799 131 169 800 252 168 801 251 126 802 130 128 803 132 170 804 253 169 805 252 127 806 131 129 807 133 171 808 254 170 809 253 128 810 132 130 811 134 172 812 255 171 813 254 129 814 133 131 815 135 173 816 256 172 817 255 130 818 134 132 819 136 174 820 257 173 821 256 131 822 135 133 823 137 175 824 258 174 825 257 132 826 136 139 827 143 177 828 259 176 829 260 138 830 142 140 831 144 178 832 261 177 833 259 139 834 143 141 835 145 179 836 262 178 837 261 140 838 144 142 839 146 166 840 263 179 841 262 141 842 145 123 843 127 164 844 249 166 845 263 142 846 146 143 847 147 182 848 264 184 849 265 144 850 148 144 851 148 184 852 265 186 853 266 146 854 150 146 855 150 186 856 266 188 857 267 147 858 151 147 859 151 188 860 267 190 861 268 148 862 152 148 863 152 190 864 268 192 865 269 149 866 153 149 867 153 192 868 269 194 869 270 150 870 154 150 871 154 194 872 270 196 873 271 151 874 155 151 875 155 196 876 271 198 877 272 152 878 156 152 879 156 198 880 272 200 881 273 153 882 157 153 883 157 200 884 273 202 885 274 154 886 158 159 887 163 205 888 275 204 889 276 160 890 164 160 891 164 204 892 276 208 893 277 161 894 165 161 895 165 208 896 277 210 897 278 162 898 166 162 899 166 210 900 278 183 901 279 163 902 167 163 903 167 183 904 279 182 905 264 143 906 147 244 907 280 111 908 281 110 909 282 245 910 283 246 911 284 247 912 285 113 913 286 112 914 287 110 915 282 175 916 288 245 917 283 248 918 289 176 919 290 113 920 286 247 921 285 202 922 291 203 923 292 249 924 293 250 925 294 251 926 295 206 927 296 205 928 297 252 929 298 243 930 299 242 931 300 253 932 301 254 933 302 215 934 303 214 935 304 255 936 305 254 937 302 249 938 293 203 939 292 215 940 303 253 941 301 242 942 300 206 943 296 251 944 295 255 945 305 214 946 304 111 947 281 244 948 280 246 949 284 112 950 287 243 951 299 252 952 298 245 953 283 175 954 288 133 955 306 256 956 307 256 957 308 133 958 309 134 959 310 257 960 311 257 961 311 134 962 310 135 963 312 258 964 313 258 965 314 135 966 315 136 967 316 259 968 317 259 969 317 136 970 316 137 971 318 260 972 319 248 973 289 261 974 320 138 975 321 176 976 290 260 977 319 137 978 318 138 979 322 261 980 323 249 981 293 262 982 324 154 983 325 202 984 291 263 985 326 155 986 327 154 987 328 262 988 329 264 989 330 156 990 331 155 991 327 263 992 326 265 993 332 157 994 333 156 995 334 264 996 335 266 997 336 158 998 337 157 999 333 265 1000 332 250 1001 294 205 1002 297 159 1003 338 267 1004 339 267 1005 340 159 1006 341 158 1007 337 266 1008 336 256 1009 342 262 1010 343 249 1011 344 252 1012 345 261 1013 346 248 1014 347 247 1015 348 252 1016 345 247 1017 348 246 1018 349 262 1019 350 256 1020 351 268 1021 352 263 1022 353 263 1023 353 268 1024 352 269 1025 354 264 1026 355 264 1027 356 269 1028 357 270 1029 358 265 1030 359 266 1031 360 265 1032 359 270 1033 358 271 1034 361 267 1035 362 266 1036 360 271 1037 361 261 1038 363 256 1039 342 249 1040 344 254 1041 364 256 1042 342 254 1043 364 255 1044 365 245 1045 366 256 1046 342 255 1047 365 244 1048 367 267 1049 368 261 1050 346 250 1051 369 250 1052 369 261 1053 346 253 1054 370 251 1055 371 253 1056 370 261 1057 346 252 1058 345</p>
        </polylist>
      </mesh>
      <extra>
        <technique profile="OpenCOLLADAMaya">
          <originalMayaNodeId>polySurface9Shape</originalMayaNodeId>
          <double_sided>1</double_sided>
        </technique>
      </extra>
    </geometry>
    <geometry id="polySurface13Shape" name="polySurface13Shape">
      <mesh>
        <source id="polySurface13Shape-positions" name="polySurface13Shape-positions">
          <float_array id="polySurface13Shape-positions-array" count="387">-1.7432 0.0212 1.0296 0 0.0212 0 -1.7633 0.0212 -0.9948 1.7432 0.0212 -1.0296 1.7633 0.0212 0.9948 -1.7432 0.0084 1.0296 0 0.0084 0 -1.7633 0.0084 -0.9948 1.7432 0.0084 -1.0296 1.7633 0.0084 0.9948 -1.7432 0 1.0296 0 0 0 -1.7633 0 -0.9948 1.7432 0 -1.0296 1.7633 0 0.9948 -0.5564 0.1074 1.0923 -0.599 0.2146 1.176 -0.9272 0.2146 0.9378 -0.8609 0.1074 0.8713 -0.1916 0.1074 1.2108 -0.2063 0.2146 1.3036 0.1919 0.1074 1.2108 0.2066 0.2146 1.3035 0.5567 0.1074 1.0922 0.5993 0.2146 1.1759 0.8611 0.1074 0.8711 0.9274 0.2146 0.9376 -0.8421 0.0821 0.8519 -0.5441 0.0821 1.0683 -0.1874 0.0821 1.1841 0.1877 0.0821 1.1841 0.5444 0.0821 1.0681 0.8423 0.0821 0.8517 -0.5564 0.5505 1.0923 -0.5441 0.5759 1.0683 -0.8421 0.5759 0.8519 -0.8609 0.5505 0.8713 -0.1916 0.5505 1.2108 -0.1874 0.5759 1.1841 0.1919 0.5505 1.2108 0.1877 0.5759 1.1841 0.5567 0.5505 1.0922 0.5444 0.5759 1.0681 0.8423 0.5759 0.8517 0.8611 0.5505 0.8711 0.6121 0.329 1.2009 0.9473 0.329 0.9576 0.9274 0.4434 0.9376 0.5993 0.4434 1.1759 0.2066 0.4434 1.3035 0.211 0.329 1.3313 -0.2063 0.4434 1.3036 -0.2107 0.329 1.3314 -0.599 0.4434 1.176 -0.6118 0.329 1.2011 -0.9272 0.4434 0.9378 -0.947 0.329 0.9578 -0.7006 0.0808 0.7097 -0.453 0.0808 0.8894 -0.156 0.0808 0.9859 0.1563 0.0808 0.9858 0.4533 0.0808 0.8893 0.7007 0.0808 0.7095 -0.453 0.5771 0.8894 -0.7006 0.5771 0.7097 -0.156 0.5771 0.9859 0.1563 0.5771 0.9858 0.4533 0.5771 0.8893 0.7007 0.5771 0.7095 -0.929 0.2175 0.9296 -0.9145 0.2303 0.9095 -0.8511 0.1317 0.847 -0.8634 0.1118 0.8639 0.8636 0.1118 0.8637 0.8513 0.1317 0.8468 0.9147 0.2303 0.9093 0.9293 0.2175 0.9293 -0.8401 0.1124 0.8382 -0.8459 0.0881 0.8462 0.8461 0.0881 0.846 0.8403 0.1124 0.838 -0.8401 0.5455 0.8382 -0.8511 0.5262 0.847 -0.8634 0.5461 0.8639 -0.8459 0.5698 0.8462 0.8403 0.5455 0.838 0.8461 0.5698 0.846 0.8636 0.5461 0.8637 0.8513 0.5262 0.8468 0.9487 0.329 0.9488 0.9323 0.329 0.9262 0.9147 0.4277 0.9093 0.9293 0.4405 0.9293 -0.9145 0.4277 0.9095 -0.932 0.329 0.9264 -0.9484 0.329 0.949 -0.929 0.4405 0.9296 -0.7056 0.1159 0.7057 -0.7057 0.0871 0.7059 -0.696 0.116 0.7049 -0.4501 0.116 0.8836 -0.4501 0.0871 0.8837 -0.6961 0.0871 0.7051 -0.155 0.116 0.9794 -0.155 0.0871 0.9796 0.1552 0.116 0.9794 0.1553 0.0871 0.9795 0.4503 0.116 0.8835 0.4504 0.0871 0.8836 0.6962 0.116 0.7048 0.6963 0.0871 0.7049 0.7058 0.0871 0.7057 0.7058 0.1159 0.7055 -0.4501 0.5419 0.8836 -0.696 0.5419 0.7049 -0.6961 0.5709 0.7051 -0.4501 0.5709 0.8837 -0.7056 0.5421 0.7057 -0.7057 0.5708 0.7059 -0.155 0.5709 0.9796 -0.155 0.5419 0.9794 0.1553 0.5709 0.9795 0.1552 0.5419 0.9794 0.4504 0.5709 0.8836 0.4503 0.5419 0.8835 0.7058 0.5421 0.7055 0.7058 0.5708 0.7057 0.6963 0.5709 0.7049 0.6962 0.5419 0.7048</float_array>
          <technique_common>
            <accessor source="#polySurface13Shape-positions-array" count="129" stride="3">
              <param name="X" type="float"/>
              <param name="Y" type="float"/>
              <param name="Z" type="float"/>
            </accessor>
          </technique_common>
        </source>
        <source id="polySurface13Shape-normals" name="polySurface13Shape-normals">
          <float_array id="polySurface13Shape-normals-array" count="1242">0 0.9999999 0 0 0.9999999 0 0 0.9999999 0 0 0.9999999 0 0 0.9999999 0 0 0.9999999 0 0 0.9999999 0 0 0.9999999 0 0 0.9999999 0 0 0.9999999 0 0 0.9999999 0 0 0.9999999 0 0 0.9999999 0 0 0.9999999 0 0 0.9999999 0 0 0.9999999 0 0 0.9999999 0 0 0.9999999 0 -0.3273908 -0.6923797 0.6429816 -0.4044921 -0.452792 0.7945851 -0.7776324 -0.4463182 0.4428182 -0.6821954 -0.6671954 0.2990982 -0.4044921 -0.452792 0.7945851 -0.3273908 -0.6923797 0.6429816 -0.112795 -0.6923709 0.7126709 -0.139394 -0.4527791 0.8806591 0.113001 -0.692405 0.7126051 0.139602 -0.4528061 0.8806123 -0.139394 -0.4527791 0.8806591 -0.112795 -0.6923709 0.7126709 0.3275009 -0.6924018 0.6429018 0.4046919 -0.4527909 0.7944839 0.139602 -0.4528061 0.8806123 0.113001 -0.692405 0.7126051 0.6825867 -0.6668866 0.2988938 0.7777444 -0.4466682 0.4422682 0.4046919 -0.4527909 0.7944839 0.3275009 -0.6924018 0.6429018 -0.6284932 -0.7093922 0.3189971 -0.3107899 -0.7286757 0.6102797 -0.3273908 -0.6923797 0.6429816 -0.6821954 -0.6671954 0.2990982 -0.3273908 -0.6923797 0.6429816 -0.3107899 -0.7286757 0.6102797 -0.107002 -0.7287111 0.6764101 -0.112795 -0.6923709 0.7126709 0.113001 -0.692405 0.7126051 -0.112795 -0.6923709 0.7126709 -0.107002 -0.7287111 0.6764101 0.107199 -0.7286952 0.6763962 0.113001 -0.692405 0.7126051 0.107199 -0.7286952 0.6763962 0.3108989 -0.7286977 0.6101978 0.3275009 -0.6924018 0.6429018 0.3275009 -0.6924018 0.6429018 0.3108989 -0.7286977 0.6101978 0.628679 -0.709276 0.318889 0.6825867 -0.6668866 0.2988938 -0.3273908 0.6923797 0.6429816 -0.310809 0.7287201 0.610217 -0.6284932 0.7093922 0.3189971 -0.6821954 0.6671954 0.2990982 -0.310809 0.7287201 0.610217 -0.3273908 0.6923797 0.6429816 -0.112795 0.6923709 0.7126709 -0.107002 0.7287111 0.6764101 -0.112795 0.6923709 0.7126709 0.113001 0.692405 0.7126051 0.107199 0.7286952 0.6763962 -0.107002 0.7287111 0.6764101 0.113001 0.692405 0.7126051 0.3275009 0.6924018 0.6429018 0.3108989 0.7286977 0.6101978 0.107199 0.7286952 0.6763962 0.628574 0.70937 0.318887 0.3108989 0.7286977 0.6101978 0.3275009 0.6924018 0.6429018 0.6822897 0.6671897 0.2988959 0.4539209 0 0.8910418 0.8457264 0 0.5336166 0.7777408 0.4463229 0.4426229 0.4046919 0.4527909 0.7944839 0.139602 0.4528061 0.8806123 0.156594 0 0.987663 0.4539209 0 0.8910418 0.4046919 0.4527909 0.7944839 0.139602 0.4528061 0.8806123 -0.139394 0.4527791 0.8806591 -0.1563011 0 0.9877095 0.156594 0 0.987663 -0.139394 0.4527791 0.8806591 -0.4044921 0.452792 0.7945851 -0.4536818 0 0.8911636 -0.1563011 0 0.9877095 -0.7777059 0.4462039 0.4428039 -0.8456813 1e-4 0.5336882 -0.4536818 0 0.8911636 -0.4044921 0.452792 0.7945851 0.3275009 0.6924018 0.6429018 0.113001 0.692405 0.7126051 0.139602 0.4528061 0.8806123 0.4046919 0.4527909 0.7944839 0.113001 0.692405 0.7126051 -0.112795 0.6923709 0.7126709 -0.139394 0.4527791 0.8806591 0.139602 0.4528061 0.8806123 -0.3273908 0.6923797 0.6429816 -0.4044921 0.452792 0.7945851 -0.139394 0.4527791 0.8806591 -0.112795 0.6923709 0.7126709 -0.4044921 0.452792 0.7945851 -0.3273908 0.6923797 0.6429816 -0.6821954 0.6671954 0.2990982 -0.7777059 0.4462039 0.4428039 0.3275009 0.6924018 0.6429018 0.4046919 0.4527909 0.7944839 0.7777408 0.4463229 0.4426229 0.6822897 0.6671897 0.2988959 0.139602 -0.4528061 0.8806123 0.4046919 -0.4527909 0.7944839 0.4539209 0 0.8910418 0.156594 0 0.987663 -0.1563011 0 0.9877095 -0.139394 -0.4527791 0.8806591 0.139602 -0.4528061 0.8806123 0.156594 0 0.987663 -0.4536818 0 0.8911636 -0.4044921 -0.452792 0.7945851 -0.139394 -0.4527791 0.8806591 -0.1563011 0 0.9877095 -0.8456813 1e-4 0.5336882 -0.7776324 -0.4463182 0.4428182 -0.4044921 -0.452792 0.7945851 -0.4536818 0 0.8911636 0.7777444 -0.4466682 0.4422682 0.8457264 0 0.5336166 0.4539209 0 0.8910418 0.4046919 -0.4527909 0.7944839 -0.003699998 -0.9999796 0.005199998 -0.003699998 -0.9999796 0.005199998 -0.003699998 -0.9999796 0.005199998 -0.003699998 -0.9999796 0.005199998 -0.002000001 -0.9999794 0.006100002 -0.002000001 -0.9999794 0.006100002 -0.002000001 -0.9999794 0.006100002 -0.002000001 -0.9999794 0.006100002 0 -0.9999794 0.006399997 0 -0.9999794 0.006399997 0 -0.9999794 0.006399997 0 -0.9999794 0.006399997 0.002000001 -0.9999794 0.006100002 0.002000001 -0.9999794 0.006100002 0.002000001 -0.9999794 0.006100002 0.002000001 -0.9999794 0.006100002 0.003699998 -0.9999796 0.005199998 0.003699998 -0.9999796 0.005199998 0.003699998 -0.9999796 0.005199998 0.003699998 -0.9999796 0.005199998 -0.003699998 0.9999796 0.005199998 -0.003699998 0.9999796 0.005199998 -0.003699998 0.9999796 0.005199998 -0.003699998 0.9999796 0.005199998 -0.002000001 0.9999794 0.006100002 -0.002000001 0.9999794 0.006100002 -0.002000001 0.9999794 0.006100002 -0.002000001 0.9999794 0.006100002 0 0.9999794 0.006399997 0 0.9999794 0.006399997 0 0.9999794 0.006399997 0 0.9999794 0.006399997 0.002000001 0.9999794 0.006100002 0.002000001 0.9999794 0.006100002 0.002000001 0.9999794 0.006100002 0.002000001 0.9999794 0.006100002 0.003699998 0.9999796 0.005199998 0.003699998 0.9999796 0.005199998 0.003699998 0.9999796 0.005199998 0.003699998 0.9999796 0.005199998 -0.9360194 -0.2511051 -0.2466051 -0.785733 -0.069703 -0.614626 -0.7504675 -0.09549594 -0.6539716 -0.8643063 -0.3408027 -0.3699027 0.8638584 -0.3422832 -0.3695822 0.7479948 -0.09619897 -0.6566958 0.7857857 -0.06579898 -0.6149888 0.9363101 -0.251003 -0.245603 -0.7196919 -0.07159898 -0.6905919 -0.8391036 -0.3065009 -0.4494018 -0.8643063 -0.3408027 -0.3699027 -0.7504675 -0.09549594 -0.6539716 0.8638584 -0.3422832 -0.3695822 0.8391036 -0.3065009 -0.4494018 0.7194959 -0.07159998 -0.6907959 0.7479948 -0.09619897 -0.6566958 -0.7196919 0.07159898 -0.6905919 -0.7480879 0.09619799 -0.6565899 -0.8636822 0.3423931 -0.3698921 -0.8391036 0.3065009 -0.4494018 0.7225239 0.067702 -0.6880229 0.8398983 0.3073991 -0.4472992 0.8635927 0.3423969 -0.3700969 0.7479948 0.09619897 -0.6566958 0.9823024 8e-4 -0.1873001 0.8084134 0.002499998 -0.5886096 0.787304 0.0643 -0.613203 0.9366065 0.2495019 -0.2460019 -0.7874386 0.06430297 -0.6130297 -0.8085778 0.002499999 -0.5883838 -0.9823606 10e-4 -0.1869929 -0.93677 0.249292 -0.245592 -0.7874386 0.06430297 -0.6130297 -0.93677 0.249292 -0.245592 -0.8636822 0.3423931 -0.3698921 -0.7480879 0.09619799 -0.6565899 0.787304 0.0643 -0.613203 0.7479948 0.09619897 -0.6566958 0.8635927 0.3423969 -0.3700969 0.9366065 0.2495019 -0.2460019 -0.9360194 -0.2511051 -0.2466051 -0.9823606 10e-4 -0.1869929 -0.8085778 0.002499999 -0.5883838 -0.785733 -0.069703 -0.614626 0.9363101 -0.251003 -0.245603 0.7857857 -0.06579898 -0.6149888 0.8084134 0.002499998 -0.5886096 0.9823024 8e-4 -0.1873001 -0.7068841 -0.008000001 -0.707284 -0.7074032 -0.003100001 -0.7068033 -0.8391036 -0.3065009 -0.4494018 -0.7196919 -0.07159898 -0.6905919 0.5876778 -0.006399997 -0.8090696 0.4539121 -0.006300001 -0.8910242 0.4539121 -0.006300001 -0.8910242 0.5876778 -0.006399997 -0.8090696 0.4539121 -0.006300001 -0.8910242 0.156298 -0.006299999 -0.9876898 0.156298 -0.006299999 -0.9876898 0.4539121 -0.006300001 -0.8910242 0.156298 -0.006299999 -0.9876898 0.156298 -0.006299999 -0.9876898 -0.156606 -0.0063 -0.987641 -0.156606 -0.0063 -0.987641 -0.156606 -0.0063 -0.987641 -0.156606 -0.0063 -0.987641 -0.4541117 -0.006299996 -0.8909224 -0.4541117 -0.006299996 -0.8909224 -0.4541117 -0.006299996 -0.8909224 -0.4541117 -0.006299996 -0.8909224 -0.5879037 -0.006399997 -0.8089056 -0.5879037 -0.006399997 -0.8089056 0.8391036 -0.3065009 -0.4494018 0.7072034 -0.003100002 -0.7070034 0.7067341 -0.008000001 -0.7074341 0.7194959 -0.07159998 -0.6907959 0.4539121 0.006300001 -0.8910242 0.5876778 0.006399997 -0.8090696 0.5876778 0.006399997 -0.8090696 0.4539121 0.006300001 -0.8910242 -0.7068841 0.008000001 -0.707284 -0.7196919 0.07159898 -0.6905919 -0.8391036 0.3065009 -0.4494018 -0.7074032 0.003100001 -0.7068033 0.4539121 0.006300001 -0.8910242 0.156298 0.006299999 -0.9876898 0.156298 0.006299999 -0.9876898 0.4539121 0.006300001 -0.8910242 0.156298 0.006299999 -0.9876898 -0.156606 0.0063 -0.987641 -0.156606 0.0063 -0.987641 0.156298 0.006299999 -0.9876898 -0.156606 0.0063 -0.987641 -0.156606 0.0063 -0.987641 -0.4541117 0.006299996 -0.8909224 -0.4541117 0.006299996 -0.8909224 0.7225239 0.067702 -0.6880229 0.701784 0.0031 -0.712383 0.702217 0.008 -0.711918 0.8398983 0.3073991 -0.4472992 -0.4541117 0.006299996 -0.8909224 -0.4541117 0.006299996 -0.8909224 -0.5879037 0.006399997 -0.8089056 -0.5879037 0.006399997 -0.8089056 -0.6821954 -0.6671954 0.2990982 -0.7776324 -0.4463182 0.4428182 -0.9360194 -0.2511051 -0.2466051 -0.8643063 -0.3408027 -0.3699027 -0.9823606 10e-4 -0.1869929 -0.9360194 -0.2511051 -0.2466051 -0.7776324 -0.4463182 0.4428182 -0.8456813 1e-4 0.5336882 -0.8643063 -0.3408027 -0.3699027 -0.8391036 -0.3065009 -0.4494018 -0.6284932 -0.7093922 0.3189971 -0.6821954 -0.6671954 0.2990982 0.7777444 -0.4466682 0.4422682 0.6825867 -0.6668866 0.2988938 0.8638584 -0.3422832 -0.3695822 0.9363101 -0.251003 -0.245603 0.8391036 -0.3065009 -0.4494018 0.8638584 -0.3422832 -0.3695822 0.6825867 -0.6668866 0.2988938 0.628679 -0.709276 0.318889 0.9823024 8e-4 -0.1873001 0.8457264 0 0.5336166 0.7777444 -0.4466682 0.4422682 0.9363101 -0.251003 -0.245603 -0.4912002 -0.7242002 -0.4840002 -0.4912002 -0.7242002 -0.4840002 -0.4912002 -0.7242002 -0.4840002 -0.4912002 -0.7242002 -0.4840002 0.4910251 -0.7242362 -0.4841241 0.4910251 -0.7242362 -0.4841241 0.4910251 -0.7242362 -0.4841241 0.4910251 -0.7242362 -0.4841241 -0.6284932 0.7093922 0.3189971 -0.8391036 0.3065009 -0.4494018 -0.8636822 0.3423931 -0.3698921 -0.6821954 0.6671954 0.2990982 -0.4912002 0.7242002 -0.4840002 -0.4912002 0.7242002 -0.4840002 -0.4912002 0.7242002 -0.4840002 -0.4912002 0.7242002 -0.4840002 -0.6821954 0.6671954 0.2990982 -0.8636822 0.3423931 -0.3698921 -0.93677 0.249292 -0.245592 -0.7777059 0.4462039 0.4428039 0.628574 0.70937 0.318887 0.6822897 0.6671897 0.2988959 0.8635927 0.3423969 -0.3700969 0.8398983 0.3073991 -0.4472992 0.9366065 0.2495019 -0.2460019 0.8635927 0.3423969 -0.3700969 0.6822897 0.6671897 0.2988959 0.7777408 0.4463229 0.4426229 0.4910251 0.7242362 -0.4841241 0.4910251 0.7242362 -0.4841241 0.4910251 0.7242362 -0.4841241 0.4910251 0.7242362 -0.4841241 0.7777408 0.4463229 0.4426229 0.8457264 0 0.5336166 0.9823024 8e-4 -0.1873001 0.9366065 0.2495019 -0.2460019 -0.8456813 1e-4 0.5336882 -0.7777059 0.4462039 0.4428039 -0.93677 0.249292 -0.245592 -0.9823606 10e-4 -0.1869929 -0.07720002 -0.005700001 -0.9969993 -0.07720002 -0.005700001 -0.9969993 -0.07720002 -0.005700001 -0.9969993 -0.07720002 -0.005700001 -0.9969993 0.4129778 -0.7114617 -0.5685697 0.4128889 -0.7115809 -0.5684849 0.3187989 -0.7115967 -0.6260968 0.3187989 -0.7115967 -0.6260968 0.3187989 -0.7115967 -0.6260968 0.3187989 -0.7115967 -0.6260968 0.109796 -0.711576 -0.6939771 0.109796 -0.711576 -0.6939771 0.109796 -0.711576 -0.6939771 0.109796 -0.711576 -0.6939771 -0.110002 -0.7116098 -0.6939098 -0.110002 -0.7116098 -0.6939098 -0.110002 -0.7116098 -0.6939098 -0.110002 -0.7116098 -0.6939098 -0.3191109 -0.7115237 -0.6260208 -0.3190881 -0.7115732 -0.6259763 -0.3190881 -0.7115732 -0.6259763 -0.3191109 -0.7115237 -0.6260208 -0.4129778 -0.7114617 -0.5685697 -0.4129181 -0.7115321 -0.5685251 0.07700098 -0.005699998 -0.9970147 0.07700098 -0.005699998 -0.9970147 0.07700098 -0.005699998 -0.9970147 0.07700098 -0.005699998 -0.9970147 0.318908 0.711619 -0.626016 0.3188881 0.7115742 -0.6260772 0.412789 0.71148 -0.5686839 0.4127829 0.7115698 -0.5685758 0.109804 0.711527 -0.6940261 0.3188881 0.7115742 -0.6260772 0.318908 0.711619 -0.626016 0.109804 0.711527 -0.6940261 -0.07720002 0.005700001 -0.9969993 -0.07720002 0.005700001 -0.9969993 -0.07720002 0.005700001 -0.9969993 -0.07720002 0.005700001 -0.9969993 0.109804 0.711527 -0.6940261 -0.110002 0.7116098 -0.6939098 -0.110002 0.7116098 -0.6939098 0.109804 0.711527 -0.6940261 -0.110002 0.7116098 -0.6939098 -0.3190881 0.7115732 -0.6259763 -0.3191109 0.7115237 -0.6260208 -0.110002 0.7116098 -0.6939098 -0.4129778 0.7114617 -0.5685697 -0.3191109 0.7115237 -0.6260208 -0.3190881 0.7115732 -0.6259763 -0.4129181 0.7115321 -0.5685251 0.07700098 0.005699998 -0.9970147 0.07700098 0.005699998 -0.9970147 0.07700098 0.005699998 -0.9970147 0.07700098 0.005699998 -0.9970147 -0.06840099 -0.5583069 -0.8268099 -0.06840099 -0.5583069 -0.8268099 -0.06840099 -0.5583069 -0.8268099 0.06820203 -0.5583143 -0.8268214 0.06820203 -0.5583143 -0.8268214 0.06820203 -0.5583143 -0.8268214 -0.06840099 0.5583069 -0.8268099 -0.06840099 0.5583069 -0.8268099 -0.06840099 0.5583069 -0.8268099 0.06820203 0.5583143 -0.8268214 0.06820203 0.5583143 -0.8268214 0.06820203 0.5583143 -0.8268214</float_array>
          <technique_common>
            <accessor source="#polySurface13Shape-normals-array" count="414" stride="3">
              <param name="X" type="float"/>
              <param name="Y" type="float"/>
              <param name="Z" type="float"/>
            </accessor>
          </technique_common>
        </source>
        <source id="polySurface13Shape-map1" name="polySurface13Shape-map1">
          <float_array id="polySurface13Shape-map1-array" count="272">0.3398 0.1426 0.1836 0.0153 0.0274 0.1426 0.3363 0.1405 0.183 0.0143 0.0296 0.1405 0.3398 0.1421 0.1836 0.0153 0.0275 0.1421 0.3363 0.1409 0.1824 0.0143 0.0296 0.1409 0.3398 0.1421 0.1836 0.0153 0.0275 0.1421 0.3363 0.1409 0.1824 0.0143 0.0296 0.1409 0.2364 0.616 0.2363 0.674 0.0667 0.6726 0.0738 0.6093 0.3976 0.6124 0.3987 0.6704 0.5662 0.6122 0.567 0.6694 0.7245 0.6119 0.7269 0.6675 0.8794 0.6013 0.8896 0.66 0.0765 0.5937 0.2366 0.6003 0.3972 0.5965 0.5661 0.5966 0.7239 0.5969 0.8762 0.5869 0.2415 0.8249 0.2424 0.8406 0.0836 0.8535 0.0801 0.8382 0.4029 0.8218 0.4034 0.8379 0.5707 0.8174 0.5712 0.8331 0.7294 0.8127 0.7294 0.8278 0.8846 0.8314 0.8869 0.8167 0.7283 0.7121 0.8936 0.7082 0.893 0.7568 0.7291 0.7567 0.5691 0.7601 0.568 0.7147 0.401 0.7631 0.3998 0.7166 0.2385 0.7669 0.237 0.7204 0.0696 0.7755 0.0656 0.7241 0.0941 0.5046 0.2379 0.5093 0.3952 0.5018 0.5664 0.5035 0.7204 0.5099 0.8559 0.5051 0.2479 0.9316 0.1055 0.9415 0.4067 0.9337 0.5752 0.9263 0.7296 0.916 0.8692 0.9159 0.0628 0.6726 0.0501 0.6716 0.0551 0.606 0.0696 0.6086 0.8834 0.6004 0.8967 0.5972 0.9051 0.6582 0.8932 0.6597 0.062 0.5886 0.0728 0.593 0.8796 0.5861 0.8894 0.5815 0.0693 0.8593 0.0616 0.8425 0.0759 0.8391 0.0799 0.8544 0.8983 0.836 0.8881 0.832 0.8909 0.8173 0.9046 0.8196 0.8973 0.7081 0.9094 0.7077 0.9087 0.7576 0.8967 0.7568 0.053 0.7773 0.0489 0.7246 0.0617 0.7242 0.0657 0.7757 0.0767 0.5012 0.09 0.5038 0.0948 0.4875 0.2376 0.4908 0.2379 0.505 0.0946 0.5008 0.3942 0.4805 0.395 0.4968 0.5672 0.4835 0.5666 0.4988 0.7206 0.4921 0.7204 0.5057 0.8544 0.489 0.8554 0.5013 0.8593 0.5046 0.8713 0.5012 0.2482 0.9502 0.107 0.9585 0.1062 0.9453 0.248 0.936 0.0883 0.9457 0.1014 0.9425 0.4068 0.9386 0.4069 0.9547 0.5755 0.9309 0.5765 0.9462 0.7297 0.9203 0.7303 0.9341 0.8852 0.9189 0.8728 0.9162 0.869 0.9198 0.8687 0.9324 0.0895 0.4877 0.8697 0.4964 0.1016 0.9585 0.8839 0.924</float_array>
          <technique_common>
            <accessor source="#polySurface13Shape-map1-array" count="136" stride="2">
              <param name="S" type="float"/>
              <param name="T" type="float"/>
            </accessor>
          </technique_common>
        </source>
        <vertices id="polySurface13Shape-vertices" name="polySurface13Shape-vertices">
          <input semantic="POSITION" source="#polySurface13Shape-positions"/>
        </vertices>
        <polylist material="___Default" count="106">
          <input semantic="VERTEX" source="#polySurface13Shape-vertices" offset="0"/>
          <input semantic="NORMAL" source="#polySurface13Shape-normals" offset="1"/>
          <input semantic="TEXCOORD" source="#polySurface13Shape-map1" offset="2" set="0"/>
          <vcount>3 3 3 3 3 3 4 4 4 4 4 4 4 4 4 4 4 4 4 4 4 4 4 4 4 4 4 4 4 4 4 4 4 4 4 4 4 4 4 4 4 4 4 4 4 4 4 4 4 4 4 4 4 4 4 4 4 4 4 4 4 4 4 4 4 4 4 4 4 4 4 4 4 4 4 4 4 4 4 4 4 4 4 4 4 4 4 4 4 4 4 4 4 4 4 4 4 4 4 4 4 4 3 3 3 3</vcount>
          <p>0 0 0 1 1 1 2 2 2 3 3 3 1 4 4 4 5 5 5 6 6 6 7 7 7 8 8 8 9 9 6 10 10 9 11 11 10 12 12 11 13 13 12 14 14 13 15 15 11 16 16 14 17 17 15 18 18 16 19 19 17 20 20 18 21 21 16 22 19 15 23 18 19 24 22 20 25 23 21 26 24 22 27 25 20 28 23 19 29 22 23 30 26 24 31 27 22 32 25 21 33 24 25 34 28 26 35 29 24 36 27 23 37 26 27 38 30 28 39 31 15 40 18 18 41 21 15 42 18 28 43 31 29 44 32 19 45 22 21 46 24 19 47 22 29 48 32 30 49 33 21 50 24 30 51 33 31 52 34 23 53 26 23 54 26 31 55 34 32 56 35 25 57 28 33 58 36 34 59 37 35 60 38 36 61 39 34 62 37 33 63 36 37 64 40 38 65 41 37 66 40 39 67 42 40 68 43 38 69 41 39 70 42 41 71 44 42 72 45 40 73 43 43 74 46 42 75 45 41 76 44 44 77 47 45 78 48 46 79 49 47 80 50 48 81 51 49 82 52 50 83 53 45 84 48 48 85 51 49 86 52 51 87 54 52 88 55 50 89 53 51 90 54 53 91 56 54 92 57 52 93 55 55 94 58 56 95 59 54 96 57 53 97 56 41 98 44 39 99 42 49 100 52 48 101 51 39 102 42 37 103 40 51 104 54 49 105 52 33 106 36 53 107 56 51 108 54 37 109 40 53 110 56 33 111 36 36 112 39 55 113 58 41 114 44 48 115 51 47 116 50 44 117 47 22 118 25 24 119 27 45 120 48 50 121 53 52 122 55 20 123 23 22 124 25 50 125 53 54 126 57 16 127 19 20 128 23 52 129 55 56 130 59 17 131 20 16 132 19 54 133 57 26 134 29 46 135 49 45 136 48 24 137 27 57 138 60 58 139 61 28 140 31 27 141 30 59 142 62 29 143 32 28 144 31 58 145 61 29 146 32 59 147 62 60 148 63 30 149 33 31 150 34 30 151 33 60 152 63 61 153 64 61 154 64 62 155 65 32 156 35 31 157 34 63 158 66 64 159 67 35 160 38 34 161 37 34 162 37 38 163 41 65 164 68 63 165 66 66 166 69 65 167 68 38 168 41 40 169 43 67 170 70 66 171 69 40 172 43 42 173 45 43 174 46 68 175 71 67 176 70 42 177 45 69 178 72 70 179 73 71 180 74 72 181 75 73 182 76 74 183 77 75 184 78 76 185 79 77 186 80 78 187 81 72 188 75 71 189 74 73 190 76 79 191 82 80 192 83 74 193 77 81 194 84 82 195 85 83 196 86 84 197 87 85 198 88 86 199 89 87 200 90 88 201 91 89 202 92 90 203 93 91 204 94 92 205 95 93 206 96 94 207 97 95 208 98 96 209 99 93 210 96 96 211 99 83 212 86 82 213 85 91 214 94 88 215 91 87 216 90 92 217 95 69 218 72 95 219 98 94 220 97 70 221 73 76 222 79 75 223 78 90 224 93 89 225 92 97 226 100 98 227 101 78 228 81 77 229 80 99 230 102 100 231 103 101 232 104 102 233 105 100 234 103 103 235 106 104 236 107 101 237 104 104 238 107 103 239 106 105 240 108 106 241 109 106 242 109 105 243 108 107 244 110 108 245 111 108 246 111 107 247 110 109 248 112 110 249 113 79 250 82 111 251 114 112 252 115 80 253 83 113 254 116 114 255 117 115 256 118 116 257 119 117 258 120 81 259 84 84 260 87 118 261 121 116 262 119 119 263 122 120 264 123 113 265 116 119 266 122 121 267 124 122 268 125 120 269 123 122 270 125 121 271 124 123 272 126 124 273 127 85 274 88 125 275 128 126 276 129 86 277 89 124 278 127 123 279 126 127 280 130 128 281 131 18 282 21 17 283 20 69 284 72 72 285 75 95 286 98 69 287 72 17 288 20 56 289 59 72 290 75 78 291 81 27 292 30 18 293 21 26 294 29 25 295 28 73 296 76 76 297 79 79 298 82 73 299 76 25 300 28 32 301 35 89 302 92 46 303 49 26 304 29 76 305 79 98 306 101 57 307 60 27 308 30 78 309 81 111 310 114 79 311 82 32 312 35 62 313 65 35 314 38 84 315 87 83 316 86 36 317 39 118 318 121 84 319 87 35 320 38 64 321 67 36 322 39 83 323 86 96 324 99 55 325 58 43 326 46 44 327 47 87 328 90 86 329 89 92 330 95 87 331 90 44 332 47 47 333 50 43 334 46 86 335 89 126 336 129 68 337 71 47 338 50 46 339 49 89 340 92 92 341 95 56 342 59 55 343 58 96 344 99 95 345 98 97 346 132 99 347 102 102 348 105 98 349 101 57 350 60 102 351 105 101 352 104 58 353 61 58 354 61 101 355 104 104 356 107 59 357 62 59 358 62 104 359 107 106 360 109 60 361 63 60 362 63 106 363 109 108 364 111 61 365 64 61 366 64 108 367 111 110 368 113 62 369 65 110 370 113 109 371 133 112 372 115 111 373 114 63 374 66 116 375 119 115 376 118 64 377 67 119 378 122 116 379 119 63 380 66 65 381 68 117 382 134 118 383 121 115 384 118 114 385 117 65 386 68 66 387 69 121 388 124 119 389 122 66 390 69 67 391 70 123 392 126 121 393 124 127 394 130 123 395 126 67 396 70 68 397 71 126 398 129 125 399 128 128 400 135 127 401 130 98 402 101 102 403 105 57 404 60 110 405 113 111 406 114 62 407 65 115 408 118 118 409 121 64 410 67 126 411 129 127 412 130 68 413 71</p>
        </polylist>
      </mesh>
      <extra>
        <technique profile="OpenCOLLADAMaya">
          <originalMayaNodeId>polySurface13Shape</originalMayaNodeId>
          <double_sided>1</double_sided>
        </technique>
      </extra>
    </geometry>
    <geometry id="pCube1Shape" name="pCube1Shape">
      <mesh>
        <source id="pCube1Shape-positions" name="pCube1Shape-positions">
          <float_array id="pCube1Shape-positions-array" count="24">-0.5 -0.037412 7.298216 0.5 -0.037412 7.298216 0.5 0.912578 7.298216 -0.5 0.912578 7.298216 0.085404 0.532477 0.942088 -0.085404 0.532477 0.942088 -0.085404 0.466186 0.942088 0.085404 0.466186 0.942088</float_array>
          <technique_common>
            <accessor source="#pCube1Shape-positions-array" count="8" stride="3">
              <param name="X" type="float"/>
              <param name="Y" type="float"/>
              <param name="Z" type="float"/>
            </accessor>
          </technique_common>
        </source>
        <source id="pCube1Shape-normals" name="pCube1Shape-normals">
          <float_array id="pCube1Shape-normals-array" count="60">0 0 0.9999999 0 0 0.9999999 0 0 0.9999999 0 0 0.9999999 0 0.9982167 -0.05969398 0 0.9982167 -0.05969398 0 0.9982167 -0.05969398 0 0.9982167 -0.05969398 0 -0.9968758 -0.07898299 0 -0.9968758 -0.07898299 0 -0.9968758 -0.07898299 0 -0.9968758 -0.07898299 0.9978793 0 -0.06508996 0.9978793 0 -0.06508996 0.9978793 0 -0.06508996 0.9978793 0 -0.06508996 -0.9978793 0 -0.06508996 -0.9978793 0 -0.06508996 -0.9978793 0 -0.06508996 -0.9978793 0 -0.06508996</float_array>
          <technique_common>
            <accessor source="#pCube1Shape-normals-array" count="20" stride="3">
              <param name="X" type="float"/>
              <param name="Y" type="float"/>
              <param name="Z" type="float"/>
            </accessor>
          </technique_common>
        </source>
        <source id="pCube1Shape-map1" name="pCube1Shape-map1">
          <float_array id="pCube1Shape-map1-array" count="40">0.164354 0.134292 0.981656 0.134292 0.981744 0.910756 0.164269 0.910756 0.020889 0.136176 0.142696 0.136179 0.083434 0.92609 0.062188 0.925874 0.083345 0.925982 0.062143 0.926084 0.020892 0.136168 0.142718 0.136168 0.142758 0.136102 0.083299 0.925979 0.06211 0.926005 0.020874 0.136139 0.062001 0.925939 0.020883 0.136184 0.142779 0.136151 0.083387 0.925838</float_array>
          <technique_common>
            <accessor source="#pCube1Shape-map1-array" count="20" stride="2">
              <param name="S" type="float"/>
              <param name="T" type="float"/>
            </accessor>
          </technique_common>
        </source>
        <vertices id="pCube1Shape-vertices" name="pCube1Shape-vertices">
          <input semantic="POSITION" source="#pCube1Shape-positions"/>
        </vertices>
        <polylist material="lambert3SG" count="5">
          <input semantic="VERTEX" source="#pCube1Shape-vertices" offset="0"/>
          <input semantic="NORMAL" source="#pCube1Shape-normals" offset="1"/>
          <input semantic="TEXCOORD" source="#pCube1Shape-map1" offset="2" set="0"/>
          <vcount>4 4 4 4 4</vcount>
          <p>0 0 0 1 1 1 2 2 2 3 3 3 3 4 4 2 5 5 4 6 6 5 7 7 6 8 8 7 9 9 1 10 10 0 11 11 1 12 12 7 13 13 4 14 14 2 15 15 6 16 16 0 17 17 3 18 18 5 19 19</p>
        </polylist>
      </mesh>
      <extra>
        <technique profile="OpenCOLLADAMaya">
          <originalMayaNodeId>pCube1Shape</originalMayaNodeId>
          <double_sided>1</double_sided>
        </technique>
      </extra>
    </geometry>
  </library_geometries>
  <library_visual_scenes>
    <visual_scene id="VisualSceneNode" name="untitled">
      <node id="polySurface9" name="polySurface9" type="NODE">
        <translate sid="translate">0 0 0</translate>
        <rotate sid="rotateZ">0 0 1 0</rotate>
        <rotate sid="rotateY">0 1 0 0</rotate>
        <rotate sid="rotateX">1 0 0 0</rotate>
        <scale sid="scale">1 1 1</scale>
        <instance_geometry url="#polySurface9Shape">
          <bind_material>
            <technique_common>
              <instance_material symbol="lambert2SG" target="#lambert2SG1">
                <bind_vertex_input semantic="TEX0" input_semantic="TEXCOORD" input_set="0"/>
                <bind_vertex_input semantic="TEX1" input_semantic="TEXCOORD" input_set="0"/>
                <bind_vertex_input semantic="TEX2" input_semantic="TEXCOORD" input_set="0"/>
              </instance_material>
            </technique_common>
          </bind_material>
        </instance_geometry>
        <extra>
          <technique profile="OpenCOLLADAMaya">
            <originalMayaNodeId>polySurface9</originalMayaNodeId>
          </technique>
        </extra>
      </node>
      <node id="polySurface13" name="polySurface13" type="NODE">
        <translate sid="translate">0 0 0</translate>
        <scale sid="scale">1 1 1</scale>
        <instance_geometry url="#polySurface13Shape">
          <bind_material>
            <technique_common>
              <instance_material symbol="___Default" target="#___Default">
                <bind_vertex_input semantic="TEX0" input_semantic="TEXCOORD" input_set="0"/>
                <bind_vertex_input semantic="TEX1" input_semantic="TEXCOORD" input_set="0"/>
              </instance_material>
            </technique_common>
          </bind_material>
        </instance_geometry>
        <extra>
          <technique profile="OpenCOLLADAMaya">
            <originalMayaNodeId>polySurface13</originalMayaNodeId>
          </technique>
        </extra>
      </node>
      <node id="pCube1" name="pCube1" type="NODE">
        <translate sid="translate">0 0 0</translate>
        <scale sid="scale">1 1 1</scale>
        <instance_geometry url="#pCube1Shape">
          <bind_material>
            <technique_common>
              <instance_material symbol="lambert3SG" target="#lambert3SG">
                <bind_vertex_input semantic="TEX0" input_semantic="TEXCOORD" input_set="0"/>
                <bind_vertex_input semantic="TEX1" input_semantic="TEXCOORD" input_set="0"/>
                <bind_vertex_input semantic="TEX2" input_semantic="TEXCOORD" input_set="0"/>
              </instance_material>
            </technique_common>
          </bind_material>
        </instance_geometry>
        <extra>
          <technique profile="OpenCOLLADAMaya">
            <originalMayaNodeId>pCube1</originalMayaNodeId>
          </technique>
        </extra>
      </node>
    </visual_scene>
  </library_visual_scenes>
  <scene>
    <instance_visual_scene url="#VisualSceneNode"/>
  </scene>
</COLLADA>